

{"Home": [{"key":"网页","title":"网页调试","pic":"http://img.cankaowang.com/202012/066.jpg"}],"zhuyejiekou": [{"name":"","url":""}],
"caijizhan": [{"name":"","url":""}],"zhujiexi":[{"name":"","url":""}],"beiyongjiexi": [{"name":"","url":""}],"dianshizhibo": "",
"guolvdizhi": "player.css#url=#51.la#poster#api.php#file=#cnzz.com#baidu.com#.gif",

//上面不用管，把下面的网页自定义规则编辑好，复制全部，粘贴到全局就可以测试自定义规则了
"zidingyi": [


{"网站名字": "免費AV線上看",
"网站地址": "https://legallet.org/",// 地址发布页 https://app.cs1080.com/
"访问请求ua": "Mozilla/5.0 (Windows NT 10.0; Win64; x64) AppleWebKit/537.36 (KHTML, like Gecko) Chrome/88.0.4324.150 Safari/537.36",
"访问请求cookie": "空",
"访问请求referer": "空",
"播放请求头": "User-Agent$123",
"图片请求头": "",
"网页编码": "utf-8",
"禁用搜索": "0",
"搜索手动验证": "0",
"集数倒序": "0",
"是否启用解析模式": "0",
"自动点击字符": "空",
"启用js加载源码":"0",
"js加载源码时间":"5",
"嗅探词": "m3u8?#.m3u8#.mp4#.flv#.mp3#.m4a",
"过滤词": "51.la#cnzz.com#baidu.com#bilibili.com",
"是否记录历史": "0",
"直接播放": "0",
"列表显示": "0",
"横图显示": "0",
"列表起始页": "1",
"列表分类": "高清AV$/categories/6-#中文字幕$/categories/8-#三上悠亚$/categories/10-#业余素人$/categories/40-#无码AV$/categories/7-#无码流出$/categories/9-#FC2PPV$/categories/11-#91视频$/categories/20-#91探花$/categories/38-#自拍流出$/categories/13-#网红福利$/categories/14-#AI明星$/categories/41-#麻豆视频$/categories/21-#91制片厂$/categories/22-#天美传媒$/categories/23-#蜜桃传媒$/categories/24-#星空传媒$/categories/26-#精东影业$/categories/27-#糖心Vlog$/categories/37-#杏吧原创$/categories/39-",
"列表后缀": ".html",
"列表二次截取": "空",
"列表截取数组": "class=\"thumbnail group\"$$</div>",
"列表图片前缀": "https://legallet.org/",
"列表图片": "\" src=\"$$\"",
"列表标题": "alt=\"$$\"",
"列表副标题": "bg-opacity-75\">$$</span>",
"列表链接": "href=\"$$\"",
"列表链接前缀": "空",
"列表链接后缀": "空",
//0：get方式，1：post方式，注意：如果用post方式，【搜索模式】要填：1
"搜索请求方式": "0",
"搜索模式": "1",
"搜索前": "search.html?wd=",
"搜索后": "&limit=150",
"搜索连接后缀": "/video/",
"搜索带翻页模式": "https://legallet.org/search/page/翻页/wd/搜索词.html",
"搜索二次截取": "空",
"搜索截取数组": "class=\"relative aspect-w-16 aspect-h-9$$</div>",
"搜索图片前缀": "https://legallet.org/",
"搜索图片": "\" src=\"$$\"",
"搜索标题": "alt=\"$$\"",
"搜索副标题": "class=\"pic-text text-right\">$$</span>",
"搜索链接": "href=\"$$\"",
"搜索链接前缀": "空",
"搜索链接后缀": "空",
"启用线路名": "0",
"线路名二次截取": "空",
"线路名截取数组": "class=\"more$$</div>",
"线路名标题": "/>$$</h3>",
"播放页状态": "类型:$$</div>",
"播放页导演": "日期:$$</div>",
"播放页演员": "热搜:$$</div>",
"播放页剧情": "tag:$$</div>",
"播放页二次截取": "空",
"播放页截取数组": "player_aaaa={$$</script>",
"播放剧集二次截取": "空",
"播放剧集截取数组": "\"flag\":$$}",
"播放剧集标题": "{\"vod_name\":\"$$\",\"vod_actor",
"播放剧集链接": "\"link\":\"$$\"",
"播放剧集链接前缀": "空",
"播放剧集链接后缀": "空",
"启用嗅探截取": "1",
"嗅探请求头": "User-Agent$Mozilla/5.0 (iPhone; CPU iPhone OS 13_2_3 like Mac OS X) AppleWebKit/605.1.15 (KHTML, like Gecko) Version/13.0.3 Mobile/15E148 Safari/604.1",//User-Agent$123#Referer$123
"播放地址二次截取": "var player_$$</div>",
"播放地址截取": "\"url\":\"$$\"",
"嗅探播放地址前缀": "空",//加前缀的话，截取的地址就会加上前缀再进行一次嗅探。
"是否base64解码": "0",
"是否url解码": "0",
"官源是否走解析": "0",
"播放页跳转看图": "0"},

{"网站名字": "黄色库房",
"网站地址": "https://hskf.site/",
"访问请求ua": "Mozilla/5.0 (Windows NT 10.0; Win64; x64) AppleWebKit/537.36 (KHTML, like Gecko) Chrome/88.0.4324.150 Safari/537.36",
"访问请求cookie": "空",
"访问请求referer": "空",
"播放请求头": "User-Agent$123",
"图片请求头": "空",
"网页编码": "utf-8",
"禁用搜索": "0",
"搜索手动验证": "0",
"集数倒序": "0",
"是否启用解析模式": "0",
"自动点击字符": "空",
"启用js加载源码":"0",
"js加载源码时间":"5",
"嗅探词": "m3u8?#.m3u8#.mp4#.flv#.mp3#.m4a",
"过滤词": "51.la#cnzz.com#baidu.com#bilibili.com",
"是否记录历史": "0",
"直接播放": "0",
"列表显示": "0",
"横图显示": "0",
"列表起始页": "1",
"列表分类": "无码中文字幕$/vodtype/6-#有码中文字幕$/vodtype/7-#日本无码$/vodtype/8-#日本有码$/vodtype/9-#国产视频$/vodtype/10-#欧美高清$/vodtype/11-#动漫剧情$/vodtype/12-",
"列表后缀": ".html",
"列表二次截取": "空",
"列表截取数组": "class=\"video\"$$</a>",
"列表图片前缀": "空",
"列表图片": "src=\"$$\"",
"列表标题": "title=\"$$\"",
"列表副标题": "class=\"pull-left\">$$</span>",
"列表链接": "href=\"$$\"",
"列表链接前缀": "空",
"列表链接后缀": "空",
//0：get方式，1：post方式，注意：如果用post方式，【搜索模式】要填：1
"搜索请求方式": "0",
"搜索模式": "1",
"搜索前": "/vodsearch/",
"搜索后": "----------1---.html",
"搜索连接后缀": "",
"搜索二次截取": "空",
"搜索截取数组": "class=\"video\"$$</a>",
"搜索图片前缀": "空",
"搜索图片": "src=\"$$\"",
"搜索标题": "title=\"$$\"",
"搜索副标题": "class=\"pic-text text-right\">$$</span>",
"搜索链接": "href=\"$$\"",
"搜索链接前缀": "空",
"搜索链接后缀": "空",
"播放页二次截取": "空",
"播放页截取数组": "player_aaaa={$$</script>",
"播放剧集二次截取": "空",
"播放剧集截取数组": "\"flag\"$$\"vod_class\"",
"播放剧集标题": "{\"vod_name\":\"$$\"",
"播放剧集链接": "\"link\":\"$$\"",
"播放剧集链接前缀": "空",
"播放剧集链接后缀": "空",
"启用嗅探截取": "1",
"嗅探请求头": "User-Agent$Mozilla/5.0 (iPhone; CPU iPhone OS 13_2_3 like Mac OS X) AppleWebKit/605.1.15 (KHTML, like Gecko) Version/13.0.3 Mobile/15E148 Safari/604.1",//User-Agent$123#Referer$123
"播放地址二次截取": "var player_$$</div>",
"播放地址截取": "\"url\":\"$$\"",
"嗅探播放地址前缀": "空",//加前缀的话，截取的地址就会加上前缀再进行一次嗅探。
"是否base64解码": "0",
"是否url解码": "0",
"官源是否走解析": "0",
"播放页跳转看图": "0"},



{"网站名字": "空姐黑料社",
"网站地址": "https://xn--4pvpji83k.com", //永久网址：kwbang.net
"访问请求ua": "Mozilla/5.0 (Windows NT 10.0; Win64; x64) AppleWebKit/537.36 (KHTML, like Gecko) Chrome/88.0.4324.150 Safari/537.36",
"访问请求cookie": "空",
"访问请求referer": "空",
"播放请求头": "User-Agent$123",
"图片请求头": "空",
"网页编码": "utf-8",
"集数倒序": "0",
"禁用搜索": "0",
"搜索手动验证": "0",
"是否启用解析模式": "0",
"自动点击字符": "空",
"启用js加载源码":"0",
"js加载源码时间":"5",
"嗅探词": "m3u8?#.m3u8#.mp4#.flv#.mp3#.m4a",
"过滤词": "51.la#cnzz.com#baidu.com#bilibili.com",
"是否记录历史": "0",
"直接播放": "1",
"列表显示": "0",
"横图显示": "0",
"列表起始页": "1",
"列表分类": "电影$/index.php/vod/type/id/1/page/#电视剧$/vodshow/id/dianying/page/#综艺$/vodshow/id/zongyi/page/#动漫$/vodshow/id/dongman/page/",
"列表后缀": ".html",
//提示：类型剧情地区年代排序可以自由选择是否显示，注意和分类链接要联动，不显示的分类链接就去掉那个分类的动态词
//0:否，1：是
"筛选列表模式": "1",
"筛选列表": [
    {
        "分类名称": "国产精品",
        "第一页分类链接": "空",
        "分类链接": "https://xn--4pvpji83k.com/index.php/vod/type/类型/page/翻页",
        "类型": "全部$id/1#国产精选$id/6#传媒影视$id/7#性爱直播$id/8#明星淫乱$id/9#强奸轮奸$id/10#乱伦性爱$id/11#约炮探花$id/12#萝莉少女$id/20#熟女人妻$id/21",
        "剧情": "空",
        "地区": "空",
        "年代": "空",
        "排序": "空"
    },
    {
        "分类名称": "海外精选",
        "第一页分类链接": "空",
        "分类链接": "https://xn--4pvpji83k.com/index.php/vod/type/类型/page/翻页",
        "类型": "全部$id/2#岛国大片$id/13#欧美大片$id/14#色情动漫$id/15",
        "剧情": "空",
        "地区": "空",
        "年代": "空",
        "排序": "空"
    },
    {
        "分类名称": "网曝稀缺",
        "第一页分类链接": "空",
        "分类链接": "https://xn--4pvpji83k.com/index.php/vod/type/类型/page/翻页",
        "类型": "全部$id/3#网曝泄密$id/22#绿帽淫妻$id/23#口爆颜射$id/24#猎奇重口$id/25#大神偷拍$id/26#三级伦理$id/27",
        "剧情": "空",
        "地区": "空",
        "年代": "空",
        "排序": "空"
    }
],
"列表二次截取": "空",
"列表截取数组": "class=\"vod_box\"$$</a>",
"列表图片前缀": "https://xn--4pvpji83k.com",
"列表图片": "data-src=\"$$\"",
"列表标题": "title=\"$$\"",
"列表副标题": "class=\"vod_tab\">$$</span>",
"列表链接": "href=\"$$\"",
"列表链接前缀": "空",
"列表链接后缀": "空",
//0：get方式，1：post方式，注意：如果用post方式，【搜索模式】要填：1
"搜索请求方式": "0",
"搜索模式": "0",
"搜索前": "/index.php/ajax/suggest?mid=1&wd=",
"搜索后": "&limit=150",
"搜索连接后缀": "/index.php/vod/play/id/",
"搜索带翻页模式": "http://www.xx.com/vod/search/page/翻页/wd/搜索词.html",
"搜索二次截取": "空",
"搜索截取数组": "前$$后",
"搜索图片前缀": "空",
"搜索图片": "original=\"$$\"",
"搜索标题": "title=\"$$\"",
"搜索副标题": "class=\"pic-text text-right\">$$</span>",
"搜索链接": "href=\"$$\"",
"搜索链接前缀": "空",
"搜索链接后缀": "空"},





{"网站名字": "JavTREE",
"网站地址": "",
"访问请求ua": "Mozilla/5.0 (Windows NT 10.0; Win64; x64) AppleWebKit/537.36 (KHTML, like Gecko) Chrome/88.0.4324.150 Safari/537.36",
"访问请求cookie": "空",
"访问请求referer": "空",
"播放请求头": "User-Agent$123",
"图片请求头": "空",
"网页编码": "utf-8",
 
//0：不禁用，1：禁用
"禁用搜索": "0",
 
//0：不启用，1：启用
"搜索手动验证": "0",
 
//0：否，1：是
"集数倒序": "0",
 
//0：不启用，1：启用
"是否启用解析模式": "0",
 
//需要点击播放的网站可以自己找网页的点击js字符
"自动点击字符": "空",
 
//0：不启用，1：启用
"启用js加载源码":"0",
"js加载源码时间":"5",
 
"嗅探词": "m3u8?#.m3u8#.mp4#.flv#.mp3#.m4a",
"过滤词": "?url=#?v=#.css#51.la#cnzz.com#baidu.com#bilibili.com",
 
//0：记录，1：不记录
"是否记录历史": "0",
 
//0：否，1：是
"直接播放": "0",
"列表显示": "0",
"横图显示": "0",
"列表起始页": "1",
"列表分类": "高清$https://javtree.com/tag/82b8fe56ba-#單體作品$https://javtree.com/tag/8e98a0e1da-#獨家作品$https://javtree.com/tag/df310a6b46-#數位作品$https://javtree.com/tag/4eda492acb-#出道作品$https://javtree.com/tag/1505d163f6-#薄馬賽克$https://javtree.com/tag/3247cfb0c5-#辦公室女郎$https://javtree.com/tag/37b24110f0-\#女学生$https://javtree.com/tag/8552443c5c-#素人$https://javtree.com/tag/4be71825bb-#人妻$https://javtree.com/tag/7a82d525be-#美少女$https://javtree.com/tag/18816a5d21-#癡女$https://javtree.com/tag/02f436418a-#姐姐$https://javtree.com/tag/ad69ded65f-#陪酒女,妓女$https://javtree.com/tag/c39ce201b2-#辣妹,少女$https://javtree.com/tag/c84325e875-#女同性戀$https://javtree.com/tag/5752d2abef-#女大學生$https://javtree.com/tag/bdae7b95f7-#姐妹$https://javtree.com/tag/00ce572e48-#各種職業$https://javtree.com/tag/4f36c2cb7e-#角色扮演$https://javtree.com/tag/b09bf30961-#年轻妻子$https://javtree.com/tag/9a4c0b6fac-#護士$https://javtree.com/tag/2b8107f8ad-#女僕$https://javtree.com/tag/6dc45d9a7c-#女捜査官$https://javtree.com/tag/d765ce36b7-#動畫$https://javtree.com/tag/92fd5ad375-#紀錄片$https://javtree.com/tag/bc57a6c9ca-#4時間以上作品$https://javtree.com/tag/496dc95630-#偷拍$https://javtree.com/tag/d07bcd11a7-#自拍淫照$https://javtree.com/tag/a23525d936-#主觀視角$https://javtree.com/tag/7d1ac5561e-#女教師$https://javtree.com/tag/4d8df4b79e-#偶像藝人$https://javtree.com/tag/4610111dbb-#偶像視頻$https://javtree.com/tag/f8048daa98-",

"列表后缀": ".html",
"列表二次截取": "空",
"列表截取数组": "class=\"item\"$$</a>",
"列表图片前缀": "https:",
"列表图片": "data-src=\"$$\"",
"列表标题": "alt=\"$$\"",
"列表副标题": "class=\"volume\">$$</div>",
"列表链接": "href=\"$$\"",
"列表链接前缀": "https://javtree.com",
"列表链接后缀": "空",
 
//0：get方式，1：post方式，注意：如果用post方式，【搜索模式】要填：1
"搜索请求方式": "0",
"搜索模式": "0",
"搜索前": "/index.php/ajax/suggest?mid=1&wd=",
"搜索后": "&limit=150",
"搜索连接后缀": "/vod/",
"搜索二次截取": "空",
"搜索截取数组": "前$$后",
"搜索图片前缀": "空",
"搜索图片": "original=\"$$\"",
"搜索标题": "title=\"$$\"",
"搜索副标题": "class=\"pic-text text-right\">$$</span>",
"搜索链接": "href=\"$$\"",
"搜索链接前缀": "空",
"搜索链接后缀": "空",
 
//0：不启用，1：启用
"启用线路名": "0",
"线路名二次截取": "空",
"线路名截取数组": "class=\"more$$</div>",
"线路名标题": "/>$$</h3>",
 
"播放页状态": " class=\"gm-d1__l__note\">$$</div>",
"播放页导演": "导演：$$</p>",
"播放页演员": "class=\"title\">演員：$$</ul>",
"播放页剧情": "class=\"gm-d1__l__title\">$$</h1>",
 
"播放页二次截取": "空",
"播放页截取数组": "\"vods\":[$$],\"i18n\":",
"播放剧集二次截取": "空",
"播放剧集截取数组": "{\"id\":\"$$}",
"播放剧集标题": "\"name\":\"$$\"",
"播放剧集链接": "\"source\":\"$$\"",
"播放剧集链接前缀": "空",
"播放剧集链接后缀": "空",
//0：不跳转，1：跳转
"播放页跳转看图": "0"},

{"网站名字": "新香蕉",
"网站地址": "https://ss522.vip/", //记住永久网址：660sav.com
"访问请求ua": "Mozilla/5.0 (Windows NT 10.0; Win64; x64) AppleWebKit/537.36 (KHTML, like Gecko) Chrome/88.0.4324.150 Safari/537.36",
"访问请求cookie": "空",
"访问请求referer": "空",
"播放请求头": "User-Agent$123",
"图片请求头": "空",
"网页编码": "utf-8",
"集数倒序": "0",
"禁用搜索": "0",
"搜索手动验证": "0",
"是否启用解析模式": "0",
"自动点击字符": "空",
"启用js加载源码":"0",
"js加载源码时间":"5",
"嗅探词": "m3u8?#.m3u8#.mp4#.flv#.mp3#.m4a",
"过滤词": "51.la#cnzz.com#baidu.com#bilibili.com",
"是否记录历史": "0",
"直接播放": "1",
"列表显示": "0",
"横图显示": "0",
"列表起始页": "1",
"列表分类": "电影$/xjzy/xc-u-#电视剧$/xjzy/xc-v-#综艺$/vodshow/id/zongyi/page/#动漫$/vodshow/id/dongman/page/",
"列表后缀": ".html",
"筛选列表模式": "1",
"筛选列表": [
    {
        "分类名称": "中文资源",
        "第一页分类链接": "空",
        "分类链接": "https://ss522.vip/xjzy/xc-类型-翻页.html",
        "类型": "中文无码$u#中文综合$v#中文近亲$w#中文护士$x#中文师生$y#中文强奸$z#明星淫梦$8#国产自拍$2#三级伦理$7#解说原片$9#3D同人$A",
        "剧情": "空",
        "地区": "空",
        "年代": "空",
        "排序": "空"
    },
    {
        "分类名称": "超清资源",
        "第一页分类链接": "空",
        "分类链接": "https://ss522.vip/cq/lz-类型-翻页.html",
        "类型": "亚洲ＡＶ$ab#自拍偷拍$bb#超清传媒$cb#3D动漫$eb#欧美ＡＶ$db#乱伦人妻$fb#丝袜制服$gb#直播录播$hb#SM另类$ib#超清三级$jb",
        "剧情": "空",
        "地区": "空",
        "年代": "空",
        "排序": "空"
    },
    {
        "分类名称": "国产传媒",
        "第一页分类链接": "空",
        "分类链接": "https://ss522.vip/gccm/jk-类型-翻页.html",
        "类型": "综合传媒$b#91制片厂$c#杏吧原创$l#糖心Vlgo$q#天美传媒$d#蜜桃传媒$e#星空传媒$g#精东影业$h#兔子先生$k#大象传媒$n",
        "剧情": "空",
        "地区": "空",
        "年代": "空",
        "排序": "空"
    },
    {
        "分类名称": "久久资源",
        "第一页分类链接": "空",
        "分类链接": "https://ss522.vip/99re/hj-类型-翻页.html",
        "类型": "国产自拍$kb#欧美$R#中文字幕$S#李宗瑞全集$T#日本无码$U#加勒比$V#日本有码$W#一本道$X#高清$Y#潮吹$bb#会员认证作品$cb#制服丝袜$db#口爆颜射$eb#肛交$fb#东京热$gb#小格式综合$hb#女主播系列$ib#成人动漫$jb#SM性虐$lb#韩国综合$mb",
        "剧情": "空",
        "地区": "空",
        "年代": "空",
        "排序": "空"
    },
    {
        "分类名称": "废柴资源",
        "第一页分类链接": "空",
        "分类链接": "https://ss522.vip/fcw/gh-类型-翻页.html",
        "类型": "VIP专区$R#偷拍系列$U#国产自拍$W#日本有码$S#日本无码$T#成人动漫$V#韩国综合$X#VR专区$Y#欧美$Z",
        "剧情": "空",
        "地区": "空",
        "年代": "空",
        "排序": "空"
    }
],
"列表二次截取": "空",
"列表截取数组": "class=\"item\"$$</a>",
"列表图片前缀": "空",
"列表图片": "original=\"$$\"",
"列表标题": "title=\"$$\"",
"列表副标题": "class=\"duration\">$$</div>",
"列表链接": "href=\"$$\"",
"列表链接前缀": "空",
"列表链接后缀": "空",
//0：get方式，1：post方式，注意：如果用post方式，【搜索模式】要填：1
"搜索请求方式": "0",
"搜索模式": "1",
"搜索前": "https://ss522.vip/ss",
"搜索后": "/page/1.html",
"搜索连接后缀": "/vod/",
"搜索带翻页模式": "https://ss522.vip/ss搜索词/page/翻页.html",
"搜索二次截取": "空",
"搜索截取数组": "class=\"item$$</a>",
"搜索图片前缀": "空",
"搜索图片": "original=\"$$\"",
"搜索标题": "title=\"$$\"",
"搜索副标题": "class=\"pic-text text-right\">$$</span>",
"搜索链接": "href=\"$$\"",
"搜索链接前缀": "空",
"搜索链接后缀": "空"},

{"网站名字": "新香蕉【移动网络】",
"网站地址": "https://yyrav.vip/", //记住永久网址：660sav.com
"访问请求ua": "Mozilla/5.0 (Windows NT 10.0; Win64; x64) AppleWebKit/537.36 (KHTML, like Gecko) Chrome/88.0.4324.150 Safari/537.36",
"访问请求cookie": "空",
"访问请求referer": "空",
"播放请求头": "User-Agent$123",
"图片请求头": "空",
"网页编码": "utf-8",
"集数倒序": "0",
"禁用搜索": "0",
"搜索手动验证": "0",
"是否启用解析模式": "0",
"自动点击字符": "空",
"启用js加载源码":"0",
"js加载源码时间":"5",
"嗅探词": "m3u8?#.m3u8#.mp4#.flv#.mp3#.m4a",
"过滤词": "51.la#cnzz.com#baidu.com#bilibili.com",
"是否记录历史": "0",
"直接播放": "1",
"列表显示": "0",
"横图显示": "0",
"列表起始页": "1",
"列表分类": "电影$/xjzy/xc-u-#电视剧$/xjzy/xc-v-#综艺$/vodshow/id/zongyi/page/#动漫$/vodshow/id/dongman/page/",
"列表后缀": ".html",
"筛选列表模式": "1",
"筛选列表": [
    {
        "分类名称": "中文资源",
        "第一页分类链接": "空",
        "分类链接": "https://yyrav.vip/cn/clm-类型-翻页.html",
        "类型": "中文无码$zhongwenwuma#中文综合$zhongwenzonghe#中文近亲$zhongwenjingqing#中文护士$zhongwenhushi#中文师生$zhongwenshisheng#中文强奸$zhongwenqiangjian#明星淫梦$mingxingyinmeng#国产自拍$guochanzipai#三级伦理$sanjizonghe#解说原片$jieshuoyuanpian#3D同人$3Dtongren",
        "剧情": "空",
        "地区": "空",
        "年代": "空",
        "排序": "空"
    },
    {
        "分类名称": "超清资源",
        "第一页分类链接": "空",
        "分类链接": "https://yyrav.vip/hd/hlm-类型-翻页.html",
        "类型": "亚洲ＡＶ$yazhou#自拍偷拍$zipaitoupai#超清传媒$chaoqingchuanmei#3D动漫$3Ddongman#欧美ＡＶ$oumei#乱伦人妻$luanlunrenqi#丝袜制服$siwazhifu#直播录播$zhibolubo#SM另类$SMlinglei#超清三级$chaoqingsanji",
        "剧情": "空",
        "地区": "空",
        "年代": "空",
        "排序": "空"
    },
    {
        "分类名称": "国产传媒",
        "第一页分类链接": "空",
        "分类链接": "https://yyrav.vip/mdav/mlm-类型-翻页.html",
        "类型": "综合传媒$madouyuanchuang#91制片厂$91zhipianchang#杏吧原创$xingbayuanchuang#糖心Vlgo$tangxinVlgo#天美传媒$tianmeichuanmei#蜜桃传媒$mitaochuanmei#星空传媒$xingkongchuanmei#精东影业$jingdongyingye#兔子先生$tuzixiansheng#大象传媒$daxiangchuanmei",
        "剧情": "空",
        "地区": "空",
        "年代": "空",
        "排序": "空"
    },
    {
        "分类名称": "久久资源",
        "第一页分类链接": "空",
        "分类链接": "https://yyrav.vip/99sp/9lm-类型-翻页.html",
        "类型": "国产自拍$guochanzipai#欧美$oumei#中文字幕$zhongwenzimu#李宗瑞全集$lizongruiquanji#日本无码$ribenwuma#加勒比$jialebi#日本有码$ribenyouma#一本道$yibendao#高清$gaoqing#潮吹$chaochui#会员认证作品$jiujiurehuiyuanrenzhengzuopin#制服丝袜$zhifusiwa#口爆颜射$koubaoyanshe#肛交$gangjiao#东京热$dongjingre#小格式综合$xiaogeshizonghe#女主播系列$hanguonvzhuboxilie#成人动漫$chengrendongman#SM性虐$SMxingnue#韩国综合$hanguozonghe",
        "剧情": "空",
        "地区": "空",
        "年代": "空",
        "排序": "空"
    },
    {
        "分类名称": "废柴资源",
        "第一页分类链接": "空",
        "分类链接": "https://yyrav.vip/fcsp/flm-类型-翻页.html",
        "类型": "VIP专区$VIPzhuanqu#偷拍系列$toupaixilie#国产自拍$guochanzipai#日本有码$ribenyouma#日本无码$ribenwuma#成人动漫$chengrendongman#韩国综合$hanguozonghe#VR专区$Y#欧美$VRzhuanqu",
        "剧情": "空",
        "地区": "空",
        "年代": "空",
        "排序": "空"
    }
],
"列表二次截取": "空",
"列表截取数组": "class=\"item\"$$</a>",
"列表图片前缀": "空",
"列表图片": "original=\"$$\"",
"列表标题": "title=\"$$\"",
"列表副标题": "class=\"duration\">$$</div>",
"列表链接": "href=\"$$\"",
"列表链接前缀": "空",
"列表链接后缀": "空",
//0：get方式，1：post方式，注意：如果用post方式，【搜索模式】要填：1
"搜索请求方式": "0",
"搜索模式": "1",
"搜索前": "https://yyrav.vip/so",
"搜索后": "/page/1.html",
"搜索连接后缀": "/vod/",
"搜索带翻页模式": "https://yyrav.vip/so搜索词/page/翻页.html",
"搜索二次截取": "空",
"搜索截取数组": "class=\"item$$</a>",
"搜索图片前缀": "空",
"搜索图片": "original=\"$$\"",
"搜索标题": "title=\"$$\"",
"搜索副标题": "class=\"pic-text text-right\">$$</span>",
"搜索链接": "href=\"$$\"",
"搜索链接前缀": "空",
"搜索链接后缀": "空"},








{"网站名字": "M片香蕉APP",
"网站地址": "https://60523.xyz",
"访问请求ua": "Mozilla/5.0 (Windows NT 10.0; Win64; x64) AppleWebKit/537.36 (KHTML, like Gecko) Chrome/88.0.4324.150 Safari/537.36",
"访问请求cookie": "空",
"访问请求referer": "空",
"播放请求头": "User-Agent$123",
"图片请求头": "空",
"网页编码": "utf-8",
"禁用搜索": "0",
"搜索手动验证": "0",
"集数倒序": "0",
"是否启用解析模式": "0",
"自动点击字符": "空",
"启用js加载源码":"1",
"js加载源码时间":"15",
"嗅探词": "m3u8?#.m3u8#.mp4#.flv#.mp3#.m4a",
"过滤词": "51.la#cnzz.com#baidu.com#bilibili.com",
"是否记录历史": "0",
"直接播放": "1",
"列表显示": "0",
"横图显示": "0",
"列表起始页": "1",
"列表分类": "制服诱惑$/index.php/vod/type/id/22/page/#国产视频$/index.php/vod/type/id/6/page/#清纯少女$/index.php/vod/type/id/8/page/#辣妹大奶$/index.php/vod/type/id/9/page/#女同专属$/index.php/vod/type/id/10/page/#素人出演$/index.php/vod/type/id/11/page/#角色扮演$/index.php/vod/type/id/12/page/#人妻熟女$/index.php/vod/type/id/20/page/#经典伦理$/index.php/vod/type/id/21/page/#成人动漫$/index.php/vod/type/id/7/page/",
"列表后缀": ".html",
"列表二次截取": "空",
"列表截取数组": "class=\"vodbox\"$$</a>",
"列表图片前缀": "空",
"列表图片": "original=\"$$\"",
"列表标题": "\")$$</p>",
"列表副标题": "class=\"pic-text text-right\">$$</span>",
"列表链接": "href=\"$$\"",
"列表链接前缀": "空",
"列表链接后缀": "空",
//0：get方式，1：post方式，注意：如果用post方式，【搜索模式】要填：1
"搜索请求方式": "0",
"搜索模式": "1",
"搜索前": "/index.php/vod/type/id/1.html?wd=",
"搜索后": "",
"搜索连接后缀": "/vod/",
"搜索带翻页模式": "https://60523.xyz/index.php/vod/type/id/3/page/翻页.html?wd=搜索词",
"搜索二次截取": "空",
"搜索截取数组": "class=\"uzimg\"$$</li>",
"搜索图片前缀": "空",
"搜索图片": "original=\"$$\"",
"搜索标题": "j\")$$</p>",
"搜索副标题": "class=\"pic-text text-right\">$$</span>",
"搜索链接": "href=\"$$\"",
"搜索链接前缀": "空",
"搜索链接后缀": "空"},



{"网站名字": "banan.tv",
"网站地址": "https://766pv.top/",//域名:768pv.top didi501.top 767pv.top  https://github.com/av91porn/91porn
"访问请求ua": "Mozilla/5.0 (Windows NT 10.0; Win64; x64) AppleWebKit/537.36 (KHTML, like Gecko) Chrome/88.0.4324.150 Safari/537.36",
"访问请求cookie": "kt_tcookie=1; PHPSESSID=5d0rjt7clsge9lbrio4tdb31d1",
"访问请求referer": "空",
"播放请求头": "User-Agent$123",
"图片请求头": "空",
"网页编码": "utf-8",
 
//0：不禁用，1：禁用
"禁用搜索": "0",
 
//0：不启用，1：启用
"启用js加载源码":"0",
"js加载源码时间":"5",
 
"嗅探词": "m3u8?#.m3u8#.mp4#.flv#.mp3#.m4a",
"过滤词": "51.la#cnzz.com#baidu.com#bilibili.com",
 
//0：记录，1：不记录
"是否记录历史": "0",
 
//0：否，1：是
"直接播放": "0",
"列表显示": "0",
"横图显示": "0",
"列表起始页": "1",
"列表分类": "探花AV$/vodtype/57-#91porn$/vodtype/23-#素人$/vodtype/63-#国产AV$/vodtype/25-#日本AV$/vodtype/22-#FC2PPV$/vodtype/28-#無修正$/topicdetail-80/page/#中文字幕$/vodtype/77-#無碼A片在線$/vodtype/66-#hongkongdoll玩偶姐姐$/vodtype/65-#自拍偷拍$/vodtype/68-#番号FSDSS$/topicdetail-8/page/#番号ABW$/topicdetail-28/page/#番号SSNI$/topicdetail-29/page/#番号IPX$/topicdetail-30/page/#番号JUL$/topicdetail-31/page/#番号STARS$/topicdetail-32/page/#番号MIDE$/topicdetail-35/page/#番号259luxu$/topicdetail-52/page/#番号SSIS$/topicdetail-27/page/#番号300MIUM$/topicdetail-79/page/",
 
"列表后缀": ".html",
"列表二次截取": "空",
"列表截取数组": "class=\"img-box cover-md\"$$</a>",
"列表图片前缀": "空",
"列表图片": "data-src=\"$$\"",
"列表标题": "alt=\"$$\"",
"列表副标题": "class=\"label\">$$</span>",
"列表链接": "href=\"$$\"",
"列表链接前缀": "空",
"列表链接后缀": "空",
 
//0：get方式，1：post方式，注意：如果用post方式，【搜索模式】要填：1
"搜索请求方式": "0",
"搜索模式": "1",
"搜索前": "/vodsearch/-------------.html?wd=",
"搜索后": "",
"搜索连接后缀": "/vodplay/",
"搜索二次截取": "空",
"搜索截取数组": "class=\"img-box cover-md$$</a>",
"搜索图片前缀": "空",
"搜索图片": "data-src=\"$$\"",
"搜索标题": "alt=\"$$\"",
"搜索副标题": "class=\"pic-text text-right\">$$</span>",
"搜索链接": "href=\"$$\"",
"搜索链接前缀": "空",
"搜索链接后缀": "空",
"播放页二次截取": "空",
"播放页截取数组": "player_aaaa={$$}",
"播放剧集自动分割模式": "0",
"播放剧集数组分割字符": "空",//json数据播放链接都集合在一起时才用到，不用时填空或者不填或者删除这个字段
"播放剧集二次截取": "空",
"播放剧集截取数组": "\"flag\":$$\"nid\"",
"播放剧集标题": "\"from\":\"$$\"",
"播放剧集链接": "\"link\":\"$$\"",
"播放剧集链接前缀": "空",
"播放剧集链接后缀": "空"},


{"网站名字": "菠萝蜜APP",
"网站地址": "https://60539.xyz/",
"访问请求ua": "Mozilla/5.0 (Windows NT 10.0; Win64; x64) AppleWebKit/537.36 (KHTML, like Gecko) Chrome/88.0.4324.150 Safari/537.36",
"访问请求cookie": "空",
"访问请求referer": "空",
"播放请求头": "User-Agent$123",
"图片请求头": "空",
"网页编码": "utf-8",

//0：不禁用，1：禁用
"禁用搜索": "0",

//0：不启用，1：启用
"启用js加载源码":"0",
"js加载源码时间":"5",

"嗅探词": "m3u8?#.m3u8#.mp4#.flv#.mp3#.m4a",
"过滤词": "51.la#cnzz.com#baidu.com#bilibili.com",

//0：记录，1：不记录
"是否记录历史": "0",

//0：否，1：是
"直接播放": "1",
"列表显示": "0",
"横图显示": "0",
"列表起始页": "1",
"列表分类": "最新影片$/index.php/vod/type/id/36/page/#国产AV$/index.php/vod/type/id/37/page/#探花AV$/index.php/vod/type/id/38/page/#91$/index.php/vod/type/id/39/page/#素人$/index.php/vod/type/id/40/page/#日本AV$/index.php/vod/type/id/42/page/#FC2$/index.php/vod/type/id/37/page/#無修正$/index.php/vod/type/id/66/page/#动漫$/index.php/vod/type/id/43/page/",
"列表后缀": ".html?wd=",
"列表二次截取": "空",
"列表截取数组": "class=\"thumbnail\"$$</a>",
"列表图片前缀": "空",
"列表图片": "<img data-original=\"$$\"",
"列表标题": "class=\"title\">$$</span>",
"列表副标题": "class=\"score\">$$</span>",
"列表链接": "href=\"$$\"",
"列表链接前缀": "空",
"列表链接后缀": "空",

//0：get方式，1：post方式，注意：如果用post方式，【搜索模式】要填：1
"搜索请求方式": "0",
"搜索模式": "0",
"搜索前": "/index.php/ajax/suggest?mid=1&wd=",
"搜索后": "&limit=150",
"搜索连接后缀": "/index.php/vod/detail/id/",
"搜索二次截取": "空",
"搜索截取数组": "前$$后",
"搜索图片前缀": "空",
"搜索图片": "original=\"$$\"",
"搜索标题": "title=\"$$\"",
"搜索副标题": "class=\"pic-text text-right\">$$</span>",
"搜索链接": "href=\"$$\"",
"搜索链接前缀": "空",
"搜索链接后缀": "空"},

{"网站名字": "名优",
"网站地址": "https://717408.xyz/",
"访问请求ua": "Mozilla/5.0 (Windows NT 10.0; Win64; x64) AppleWebKit/537.36 (KHTML, like Gecko) Chrome/95.0.4638.69 Safari/537.36",
"访问请求cookie": "空",
"访问请求referer": "空",
"播放请求头": "User-Agent$123",
"图片请求头": "空",
"网页编码": "utf-8",
"禁用搜索": "0",
"搜索手动验证": "0",
"集数倒序": "0",
"是否启用解析模式": "0",
"自动点击字符": "0",
"启用js加载源码":"0",
"js加载源码时间":"15",
"嗅探词": "m3u8?#.m3u8#.mp4#.flv#.mp3#.m4a",
"过滤词": "51.la#cnzz.com#baidu.com#bilibili.com#?v=",
"是否记录历史": "0",
"直接播放": "0",
"列表显示": "0",
"横图显示": "0",
"列表起始页": "1",
"列表分类": "国产$/index.php/vod/type/id/26/page/#欧美$/index.php/vod/type/id/30/page/#中文$/index.php/vod/type/id/28/page/#字幕$/index.php/vod/type/id/27/page/#无码$/index.php/vod/type/id/29/page/#动漫$/index.php/vod/type/id/33/page/",
"列表后缀": ".html",
"列表二次截取": "空",
"列表截取数组": "class=\"vodbox\"$$</a>",
"列表图片前缀": "空",
"列表图片": "data-original=\"$$\"",
"列表标题": "<p>$$</p>",
"列表副标题": "class=\"pic-text text-right\">$$</span>",
"列表链接": "href=\"$$\"",
"列表链接前缀": "空",
"列表链接后缀": "空",
//0：get方式，1：post方式，注意：如果用post方式，【搜索模式】要填：1
"搜索请求方式": "0",
"搜索模式": "1",
"搜索前": "/index.php/vod/type/id/3.html?wd=",
"搜索后": "",
"搜索连接后缀": "/voddetail/",
"搜索带翻页模式": "https://717408.xyz/index.php/vod/type/id/3/page/翻页.html?wd=搜索词",
"搜索二次截取": "空",
"搜索截取数组": "class=\"vodbox\"$$</a>",
"搜索图片前缀": "空",
"搜索图片": "data-original=\"$$\"",
"搜索标题": "<p>$$</p>",
"搜索副标题": "class=\"pic-text text-right\">$$</span>",
"搜索链接": "href=\"$$\"",
"搜索链接前缀": "空",
"搜索链接后缀": "空",
"播放页二次截取": "空",
"播放页截取数组": " new Playerjs($$)",
"播放剧集二次截取": "空",
"播放剧集截取数组": "{$$}",
"播放剧集标题": "id:\"$$\"",
"播放剧集链接": "\"file\":\"$$\"",
"播放剧集链接前缀": "空",
"播放剧集链接后缀": "空"},

{"网站名字": "爽片",
"网站地址": "https://60383.xyz",
"访问请求ua": "Mozilla/5.0 (Windows NT 10.0; Win64; x64) AppleWebKit/537.36 (KHTML, like Gecko) Chrome/95.0.4638.69 Safari/537.36",
"访问请求cookie": "空",
"访问请求referer": "空",
"播放请求头": "User-Agent$123",
"图片请求头": "空",
"网页编码": "utf-8",
"禁用搜索": "0",
"搜索手动验证": "0",
"集数倒序": "0",
"是否启用解析模式": "0",
"自动点击字符": "0",
"启用js加载源码":"1",
"js加载源码时间":"10",
"嗅探词": "m3u8?#.m3u8#.mp4#.flv#.mp3#.m4a",
"过滤词": "51.la#cnzz.com#baidu.com#bilibili.com#?v=",
"是否记录历史": "0",
"直接播放": "0",
"列表显示": "0",
"横图显示": "0",
"列表起始页": "1",
"列表分类": "無碼解放$/index.php/art/type/id/60/page/#素人无码$/index.php/art/type/id/58/page/#无码流出$/index.php/art/type/id/59/page/#果冻传媒$/index.php/art/type/id/18/page/#蜜桃传媒$/index.php/art/type/id/21/page/#麻豆传媒$/index.php/art/type/id/23/page/#其它传媒$/index.php/art/type/id/22/page/#中文字幕$/index.php/art/type/id/17/page/#角色劇情$/index.php/art/type/id/24/page/#凌辱$/index.php/art/type/id/25/page/#制服誘惑$/index.php/art/type/id/26/page/#絲襪美腿$/index.php/art/type/id/27/page/#多P群交$/index.php/art/type/id/28/page/#直接開啪$/index.php/art/type/id/29/page/#主奴调教$/index.php/art/type/id/30/page/",
"列表后缀": ".html?wd=",
"列表二次截取": "class=\"items$$</div>",
"列表截取数组": "<a$$</a>",
"列表图片前缀": "空",
"列表图片": "src=\"$$\"",
"列表标题": "\')$$</figcaption>",
"列表副标题": "class=\"pic-text text-right\">$$</span>",
"列表链接": "href=\"$$\"",
"列表链接前缀": "空",
"列表链接后缀": "空",
//0：get方式，1：post方式，注意：如果用post方式，【搜索模式】要填：1
"搜索请求方式": "0",
"搜索模式": "1",
"搜索前": "/index.php/art/type/id/5.html?wd=",
"搜索后": "",
"搜索连接后缀": "/voddetail/",
"搜索带翻页模式": "https://612469.xyz/index.php/art/type/id/5/page/翻页.html?wd=搜索词",
"搜索二次截取": "class=\"items$$</div>",
"搜索截取数组": "<a$$</a>",
"搜索图片前缀": "空",
"搜索图片": "src=\"$$\"",
"搜索标题": "\')$$</figcaption>",
"搜索副标题": "class=\"pic-text text-right\">$$</span>",
"搜索链接": "href=\"$$\"",
"搜索链接前缀": "空",
"搜索链接后缀": "空",
"播放页二次截取": "空",
"播放页截取数组": " var config = $$</script>",
"播放剧集二次截取": "空",
"播放剧集截取数组": "{$$}",
"播放剧集标题": "id\": \"$$\"",
"播放剧集链接": "\"url\": \"$$\"",
"播放剧集链接前缀": "空",
"播放剧集链接后缀": "空"},


{"网站名字": "C片",
"网站地址": "https://60575.xyz/",
"访问请求ua": "Mozilla/5.0 (Windows NT 10.0; Win64; x64) AppleWebKit/537.36 (KHTML, like Gecko) Chrome/95.0.4638.69 Safari/537.36",
"访问请求cookie": "空",
"访问请求referer": "空",
"播放请求头": "User-Agent$123",
"图片请求头": "空",
"网页编码": "utf-8",
"禁用搜索": "0",
"搜索手动验证": "0",
"集数倒序": "0",
"是否启用解析模式": "0",
"自动点击字符": "0",
"启用js加载源码":"1",
"js加载源码时间":"15",
"嗅探词": "m3u8?#.m3u8#.mp4#.flv#.mp3#.m4a",
"过滤词": "51.la#cnzz.com#baidu.com#bilibili.com#?v=#?url=",
"是否记录历史": "0",
"直接播放": "0",
"列表显示": "0",
"横图显示": "0",
"列表起始页": "1",
"列表分类": "最近更新$/index.php/vod/type/id/59/page/#日韩有码$/index.php/vod/type/id/65/page/#欧美精品$/index.php/vod/type/id/63/page/#国产精品$/index.php/vod/type/id/60/page/#日韩无码$/index.php/vod/type/id/61/page/",
"列表后缀": "",
"列表二次截取": "空",
"列表截取数组": "class=\"obxobxpd_md$$</li>",
"列表图片前缀": "空",
"列表图片": "src=\"$$\"",
"列表标题": "<p>$$</p>",
"列表副标题": "class=\"pic-text text-right\">$$</span>",
"列表链接": "href=\"$$\"",
"列表链接前缀": "空",
"列表链接后缀": "空",
//0：get方式，1：post方式，注意：如果用post方式，【搜索模式】要填：1
"搜索请求方式": "0",
"搜索模式": "1",
"搜索前": "/index.php/vod/type/id/59.html?wd=",
"搜索后": "",
"搜索连接后缀": "/voddetail/",
"搜索二次截取": "空",
"搜索截取数组": "class=\"obxobxpd_md$$</li>",
"搜索图片前缀": "空",
"搜索图片": "src=\"$$\"",
"搜索标题": "<p>$$</p>",
"搜索副标题": "class=\"pic-text text-right\">$$</span>",
"搜索链接": "href=\"$$\"",
"搜索链接前缀": "空",
"搜索链接后缀": "空",
"播放页二次截取": "空",
"播放页截取数组": " new Playerjs($$)",
"播放剧集二次截取": "空",
"播放剧集截取数组": "{$$}",
"播放剧集标题": "id:\"$$\"",
"播放剧集链接": "\"file\":\"$$\"",
"播放剧集链接前缀": "空",
"播放剧集链接后缀": "空"},



{"网站名字": "中文",
"网站地址": "https://612188.xyz/",
"访问请求ua": "Mozilla/5.0 (Windows NT 10.0; Win64; x64) AppleWebKit/537.36 (KHTML, like Gecko) Chrome/88.0.4324.150 Safari/537.36",
"访问请求cookie": "空",
"访问请求referer": "空",
"播放请求头": "User-Agent$123",
"图片请求头": "空",
"网页编码": "utf-8",

//0：不禁用，1：禁用
"禁用搜索": "0",

//0：不启用，1：启用
"启用js加载源码":"0",
"js加载源码时间":"5",

"嗅探词": "m3u8?#.m3u8#.mp4#.flv#.mp3#.m4a",
"过滤词": "51.la#cnzz.com#baidu.com#bilibili.com",

//0：记录，1：不记录
"是否记录历史": "0",

//0：否，1：是
"直接播放": "1",
"列表显示": "0",
"横图显示": "0",
"列表起始页": "1",
"列表分类": "AV无码$/index.php/vod/type/id/50/page/#AV视频$/index.php/vod/type/id/40/page/#人妻伦理$/index.php/vod/type/id/45/page/#丝袜制服$/index.php/vod/type/id/46/page/#传媒视频$/index.php/vod/type/id/42/page/#动漫$/index.php/vod/type/id/43/page/#sm$/index.php/vod/type/id/49/page/#欧美$/index.php/vod/type/id/44/page/#主播$/index.php/vod/type/id/47/page/#国产自拍$/index.php/vod/type/id/41/page/",
"列表后缀": ".html",
"列表二次截取": "空",
"列表截取数组": "class=\"vodbox\"$$</a>",
"列表图片前缀": "空",
"列表图片": "original=\"$$\"",
"列表标题": "km(\"$$\")",
"列表副标题": "class=\"pic-text text-right\">$$</span>",
"列表链接": "href=\"$$\"",
"列表链接前缀": "空",
"列表链接后缀": "空",

//0：get方式，1：post方式，注意：如果用post方式，【搜索模式】要填：1
"搜索请求方式": "0",
"搜索模式": "1",
"搜索前": "/index.php/vod/type/id/39.html?wd=",
"搜索后": "&limit=150",
"搜索连接后缀": "/index.php/vod/detail/id/",
"搜索二次截取": "空",
"搜索截取数组": "class=\"vodbox\"$$</a>",
"搜索图片前缀": "空",
"搜索图片": "original=\"$$\"",
"搜索标题": "km(\"$$\")",
"搜索副标题": "class=\"pic-text text-right\">$$</span>",
"搜索链接": "href=\"$$\"",
"搜索链接前缀": "空",
"搜索链接后缀": "空"},



{"网站名字": "v资源网",
"网站地址": "https://612377.xyz/",
"访问请求ua": "Mozilla/5.0 (Windows NT 10.0; Win64; x64) AppleWebKit/537.36 (KHTML, like Gecko) Chrome/88.0.4324.150 Safari/537.36",
"访问请求cookie": "空",
"访问请求referer": "空",
"播放请求头": "User-Agent$123",
"图片请求头": "空",
"网页编码": "utf-8",
"禁用搜索": "0",
"搜索手动验证": "0",
"集数倒序": "0",
"是否启用解析模式": "0",
"自动点击字符": "空",
"启用js加载源码":"0",
"js加载源码时间":"5",

"嗅探词": "m3u8?#.m3u8#.mp4#.flv#.mp3#.m4a#?v=",
"过滤词": "?url=#?v=#.css#51.la#cnzz.com#baidu.com#bilibili.com",
"是否记录历史": "0",
"直接播放": "0",
"列表显示": "0",
"横图显示": "0",
"列表起始页": "1",
"列表分类": "国产精品$ao.php?id=10&page=#福利姬$ao.php?id=19&page=#精品三级$ao.php?id=11&page=#抖阴视频$ao.php?id=13&page=#主播大秀$ao.php?id=14&page=#国模私拍$ao.php?id=17&page=#颜射瞬间$ao.php?id=16&page=#女神学生$ao.php?id=1&page=#美熟少妇$ao.php?id=2&page=#娇妻素人$ao.php?id=3&page=#空姐模特$ao.php?id=4&page=#国产伦理$ao.php?id=5&page=#自慰群P$ao.php?id=6&page=#野合车震$ao.php?id=7&page=#职场同事$ao.php?id=8&page=#国产名人$ao.php?id=9&page=#网曝门事件$ao.php?id=12&page=#小鸟酱专题$ao.php?id=15&page=",
"列表后缀": "",
"列表二次截取": "空",
"列表截取数组": "class=\"obxobxpd_md$$</li>",
"列表图片前缀": "空",
"列表图片": "src=\"$$\"",
"列表标题": "<p>$$</p>",
"列表副标题": "class=\"pic-text text-right\">$$</span>",
"列表链接": "href=\"$$\"",
"列表链接前缀": "空",
"列表链接后缀": "空",

//0：get方式，1：post方式，注意：如果用post方式，【搜索模式】要填：1
"搜索请求方式": "0",
"搜索模式": "1",
"搜索前": "https://612377.xyz/av.php?id=",
"搜索后": "&page=",
"搜索连接后缀": "/vod/",
"搜索二次截取": "空",
"搜索截取数组": "class=\"obxobxpd_md$$</a>",
"搜索图片前缀": "空",
"搜索图片": "src=\"$$\"",
"搜索标题": "<p>$$</p>",
"搜索副标题": "class=\"pic-text text-right\">$$</span>",
"搜索链接": "href=\"$$\"",
"搜索链接前缀": "空",
"搜索链接后缀": "空",
"播放页二次截取": "空",
"播放页截取数组": "new DPlayer($$</script>",
"播放剧集自动分割模式": "0",
"播放剧集数组分割字符": "空",//json数据播放链接都集合在一起时才用到，不用时填空或者不填或者删除这个字段
"播放剧集二次截取": "空",
"播放剧集截取数组": "{$$}",
"播放剧集标题": "type: \'$$\'",
"播放剧集链接": "url: \'$$\'",
"播放剧集链接前缀": "空",
"播放剧集链接后缀": "空"},


{"网站名字": "名优资源二区",
"网站地址": "https://717463.xyz/",
"访问请求ua": "Mozilla/5.0 (Windows NT 10.0; Win64; x64) AppleWebKit/537.36 (KHTML, like Gecko) Chrome/95.0.4638.69 Safari/537.36",
"访问请求cookie": "空",
"访问请求referer": "空",
"播放请求头": "User-Agent$123",
"图片请求头": "空",
"网页编码": "utf-8",
"禁用搜索": "0",
"搜索手动验证": "0",
"集数倒序": "0",
"是否启用解析模式": "0",
"自动点击字符": "0",
"启用js加载源码":"0",
"js加载源码时间":"15",
"嗅探词": "m3u8?#.m3u8#.mp4#.flv#.mp3#.m4a",
"过滤词": "51.la#cnzz.com#baidu.com#bilibili.com#?id=",
"是否记录历史": "0",
"直接播放": "1",
"列表显示": "0",
"横图显示": "0",
"列表起始页": "1",
"列表分类": "全部视频$/bb/77.php?d=&bb=&p=#精品自拍$/bb/6.php?d=54&bb=1&p=#大神合集$/bb/6.php?d=56&bb=1&p=#极品网红$/bb/6.php?d=57&bb=1&p=#火辣主播$/bb/6.php?d=89&bb=1&p=#丝袜美腿$/bb/6.php?d=80&bb=1&p=#中文字幕$/bb/6.php?d=82&bb=2&p=#精品素人$/bb/6.php?d=83&bb=2&p=#制服诱惑$/bb/6.php?d=84&bb=2&p=#H动漫$/bb/6.php?d=86&bb=2&p=#欧美激情$/bb/6.php?d=85&bb=2&p=#高清无码$/bb/6.php?d=90&bb=2&p=",
"列表后缀": "",
"列表二次截取": "空",
"列表截取数组": "class=\"uzimg\"$$</li>",
"列表图片前缀": "空",
"列表图片": "src=\"$$\"",
"列表标题": "<h4>$$</h4>",
"列表副标题": "class=\"pic-text text-right\">$$</span>",
"列表链接": "href=\"$$\"",
"列表链接前缀": "空",
"列表链接后缀": "空",
//0：get方式，1：post方式，注意：如果用post方式，【搜索模式】要填：1
"搜索请求方式": "0",
"搜索模式": "1",
"搜索前": "/bb/77.php?d=&bb=",
"搜索后": "&p=",
"搜索连接后缀": "/voddetail/",
"搜索二次截取": "空",
"搜索截取数组": "class=\"uzimg\"$$</li>",
"搜索图片前缀": "空",
"搜索图片": "src=\"$$\"",
"搜索标题": "<h4>$$</h4>",
"搜索副标题": "class=\"pic-text text-right\">$$</span>",
"搜索链接": "href=\"$$\"",
"搜索链接前缀": "空",
"搜索链接后缀": "空"},

{"网站名字": "毛片",
"网站地址": "https://60501.xyz/",
"访问请求ua": "Mozilla/5.0 (Windows NT 10.0; Win64; x64) AppleWebKit/537.36 (KHTML, like Gecko) Chrome/88.0.4324.150 Safari/537.36",
"访问请求cookie": "空",
"访问请求referer": "空",
"播放请求头": "User-Agent$123",
"图片请求头": "空",
"网页编码": "utf-8",
"禁用搜索": "0",
"搜索手动验证": "0",
"集数倒序": "0",
"是否启用解析模式": "0",
"自动点击字符": "空",
"启用js加载源码":"0",
"js加载源码时间":"5",

"嗅探词": "m3u8?#.m3u8#.mp4#.flv#.mp3#.m4a",
"过滤词": "?url=#?v=#.css#51.la#cnzz.com#baidu.com#bilibili.com",
"是否记录历史": "0",
"直接播放": "1",
"列表显示": "0",
"横图显示": "0",
"列表起始页": "1",
"列表分类": "JVID$/5.php?id=38&page=#麻豆$/5.php?id=21&page=#SWAG$/5.php?id=14&page=#国产三级片$/5.php?id=40&page=#原创VIP剧情$/5.php?id=35&page=#91TV短视频$/5.php?id=59&page=#推特福利姬$/5.php?id=41&page=#软萌伪娘$/5.php?id=53&page=#ASMR$/5.php?id=65&page=#女性向AV$/5.php?id=79&page=#人妖$/5.php?id=35&page=#恋足$/5.php?id=48&page=#高清动漫$/5.php?id=50&page=#Play Boy$/5.php?id=52&page=#刘玥$/5.php?id=56&page=#Xiao e$/5.php?id=58&page=#91TV探花$/5.php?id=63&page=#Elise兔兔$/5.php?id=66&page=#性爱娃娃$/5.php?id=67&page=#香港玩偶姐姐$/5.php?id=68&page=#国产直播$/5.php?id=69&page=#海外直播$/5.php?id=70&page=#日韩三级片$/5.php?id=71&page=#推特大神 DOM$/5.php?id=72&page=#国产原创AV$/5.php?id=73&page=#原创VIP非剧情$/5.php?id=74&page=#明星AI$/5.php?id=77&page=#Vivian姐$/5.php?id=78&page=#日本AV$/5.php?id=80&page=#原创免费中文字幕$/5.php?id=54&page=#门事件$/5.php?id=76&page=",
"列表后缀": "",
"筛选列表模式": "1",
"筛选列表": [
{
"分类名称": "一区",
"第一页分类链接": "空",
"分类链接": "https://60563.xyz/5.php?id=类型&page=翻页",
"类型": "JVID$38#麻豆$21#SWAG国产视频$14#国产三级片$40#原创VIP剧情$55#91TV短视频$59#推特福利姬$41#软萌伪娘$53#ASMR$65#女性向AV$79#人妖$35#恋足$48#高清动漫$50#Play Boy$52#刘玥$56#Xiao e$58#91TV探花$63#Elise兔兔$66#性爱娃娃$67#香港玩偶姐姐$68#国产直播$69#海外直播$70#日韩三级片$71#推特大神 DOM$72#国产原创AV$73#原创VIP非剧情$74#明星AI$77#Vivian姐$78#日本AV$80#原创免费中文字幕$54#门事件$76",
"剧情": "空",
"地区": "空",
"年代": "空",
"排序": "空"
}
],
"列表二次截取": "空",
"列表截取数组": "class=\"obxobxpd_md\"$$</a>",
"列表图片前缀": "空",
"列表图片": "src=\"$$\"",
"列表标题": "<p>$$</p>",
"列表副标题": "class=\"pic-text text-right\">$$</span>",
"列表链接": "href=\"$$\"",
"列表链接前缀": "空",
"列表链接后缀": "空",
"播放页截取数组": "var player =$$</script>",
"播放剧集自动分割模式": "0",
"播放剧集数组分割字符": "空",//json数据播放链接都集合在一起时才用到，不用时填空或者不填或者删除这个字段
"播放剧集二次截取": "空",
"播放剧集截取数组": "({$$}], ",
"播放剧集标题": "name: \'$$\'",
"播放剧集链接": "source\": \"$$\"",
"播放剧集链接前缀": "空",
"播放剧集链接后缀": "空"},

{"网站名字": "G片{搜索}",
"网站地址": "https://612489.xyz/",
"访问请求ua": "Mozilla/5.0 (Windows NT 10.0; Win64; x64) AppleWebKit/537.36 (KHTML, like Gecko) Chrome/95.0.4638.69 Safari/537.36",
"访问请求cookie": "空",
"访问请求referer": "空",
"播放请求头": "User-Agent$123",
"图片请求头": "空",
"网页编码": "utf-8",
"禁用搜索": "0",
"搜索手动验证": "0",
"集数倒序": "0",
"是否启用解析模式": "0",
"自动点击字符": "0",
"启用js加载源码":"1",
"js加载源码时间":"10",
"嗅探词": "m3u8?#.m3u8#.mp4#.flv#.mp3#.m4a",
"过滤词": "51.la#cnzz.com#baidu.com#bilibili.com#?v=",
"是否记录历史": "0",
"直接播放": "0",
"列表显示": "0",
"横图显示": "0",
"列表起始页": "1",
"列表分类": "标签$/index.php/vod/type/id/4/page/",
"列表后缀": ".html",

"列表二次截取": "空",
"列表截取数组": "class=\"vodbox$$</a>",
"列表图片前缀": "空",
"列表图片": "data-original=\"$$\"",
"列表标题": "\')$$</p>",
"列表副标题": "class=\"pic-text text-right\">$$</span>",
"列表链接": "href=\"$$\"",
"列表链接前缀": "空",
"列表链接后缀": "空",
//0：get方式，1：post方式，注意：如果用post方式，【搜索模式】要填：1
"搜索请求方式": "0",
"搜索模式": "1",
"搜索前": "/index.php/vod/type/id/4/page/1.html?wd=",
"搜索后": "",
"搜索连接后缀": "/voddetail/",
"搜索带翻页模式": "https://612489.xyz/index.php/vod/type/id/4/page/翻页.html?wd=搜索词",
"搜索二次截取": "空",
"搜索截取数组": "class=\"vodbox$$</a>",
"搜索图片前缀": "空",
"搜索图片": "data-original=\"$$\"",
"搜索标题": "\')$$</p>",
"搜索副标题": "class=\"pic-text text-right\">$$</span>",
"搜索链接": "href=\"$$\"",
"搜索链接前缀": "空",
"搜索链接后缀": "空",
"播放页二次截取": "空",
"播放页截取数组": "var player = $$</script>",
"播放剧集二次截取": "空",
"播放剧集截取数组": "({ $$})",
"播放剧集标题": "id:\"$$\"",
"播放剧集链接": "\"file\":\"$$\"",
"播放剧集链接前缀": "空",
"播放剧集链接后缀": "空"},


{"网站名字": "N片【图片加密】",
"网站地址": "https://61502.xyz/",
"访问请求ua": "Mozilla/5.0 (Windows NT 10.0; Win64; x64) AppleWebKit/537.36 (KHTML, like Gecko) Chrome/95.0.4638.69 Safari/537.36",
"访问请求cookie": "空",
"访问请求referer": "空",
"播放请求头": "User-Agent$123",
"图片请求头": "Referer$https://61502.xyz/",
"网页编码": "utf-8",
"禁用搜索": "0",
"搜索手动验证": "0",
"集数倒序": "0",
"是否启用解析模式": "0",
"自动点击字符": "0",
"启用js加载源码":"1",
"js加载源码时间":"15",
"嗅探词": "m3u8?#.m3u8#.mp4#.flv#.mp3#.m4a",
"过滤词": "51.la#cnzz.com#baidu.com#bilibili.com#?v=",
"是否记录历史": "0",
"直接播放": "1",
"列表显示": "0",
"横图显示": "0",
"列表起始页": "1",
"列表分类": "全部$/index.php/vod/type/id/2/page/#国产$/index.php/vod/type/id/13/page/#主播$/index.php/vod/type/id/14/page/#日韩$/index.php/vod/type/id/15/page/#欧美$/index.php/vod/type/id/16/page/#动漫$/index.php/vod/type/id/54/page/",
"列表后缀": "",
"列表二次截取": "class=\"items$$class=\"pageDiv",
"列表截取数组": "<figure>$$</figure>",
"列表图片前缀": "空",
"列表图片": "https://i01piccdn.sogoucdn.com/bed572ea986404c4$$\"",
"列表标题": "\')$$</a>",
"列表副标题": "class=\"pic-text text-right\">$$</span>",
"列表链接": "href=\"$$\"",
"列表链接前缀": "空",
"列表链接后缀": "空",
//0：get方式，1：post方式，注意：如果用post方式，【搜索模式】要填：1
"搜索请求方式": "0",
"搜索模式": "1",
"搜索前": "/index.php/vod/type/id/2.html?wd=",
"搜索后": "",
"搜索连接后缀": "/voddetail/",
"搜索二次截取": "class=\"items$$class=\"pageDiv",
"搜索截取数组": "<figure>$$</figure>",
"搜索图片前缀": "空",
"搜索图片": "loading=\"lazy\" src=\"$$\"",
"搜索标题": "\')$$</a>",
"搜索副标题": "class=\"pic-text text-right\">$$</span>",
"搜索链接": "href=\"$$\"",
"搜索链接前缀": "空",
"搜索链接后缀": "空",
"播放页截取数组": "var player =$$</script>",
"播放剧集自动分割模式": "0",
"播放剧集数组分割字符": "空",//json数据播放链接都集合在一起时才用到，不用时填空或者不填或者删除这个字段
"播放剧集二次截取": "空",
"播放剧集截取数组": "({$$})",
"播放剧集标题": "id:\"$$\"",
"播放剧集链接": " \"file\":\"$$\"",
"播放剧集链接前缀": "空",
"播放剧集链接后缀": "空"},



{"网站名字": "漫画",
"网站地址": "https://312521.xyz/",
"访问请求ua": "Mozilla/5.0 (Windows NT 10.0; Win64; x64) AppleWebKit/537.36 (KHTML, like Gecko) Chrome/88.0.4324.150 Safari/537.36",
"访问请求cookie": "空",
"访问请求referer": "空",
"播放请求头": "User-Agent$123",
"图片请求头": "空",
"网页编码": "utf-8",
"列表起始页": "1",
"列表分类": "一区$/cc/1.php?id=2&page=#二区$/c/1.php?id=2&page=#三区$/ca/1.php?id=2&page=#四区$/cb/1.php?id=2&page=#五区$/cd/1.php?id=2&page=#六区$/c/c/1.php?id=2&page=",
"列表后缀": "",
"列表二次截取": "class=\"list$$</ul>",
"列表截取数组": "<a$$</a>",
"列表图片前缀": "空",
"列表图片": "data-original=\"$$\"",
"列表标题": "class=\"title\">$$</div>",
"列表副标题": "class=\"author\">作者:$$</div>",
"列表链接": "href=\"$$\"",
"列表链接前缀": "空",
"列表链接后缀": "空",
"搜索请求方式": "0",
"搜索模式": "1",
"搜索前": "https://312521.xyz/ca/a.php?key=",
"搜索后": "",
"搜索连接后缀": "/vod/",
"搜索二次截取": "class=\"list$$</ul>",
"搜索截取数组": "<a$$</a>",
"搜索图片前缀": "空",
"搜索图片": "data-original=\"$$\"",
"搜索标题": "class=\"title\">$$</div>",
"搜索副标题": "last_chapter_name\":\"$$\"",
"搜索链接": "href=\"$$\"",
"搜索链接前缀": "空",
"搜索链接后缀": "空",
"播放页状态": "狀態：$$</p>",
"播放页导演": "class=\"author\">作者:$$</div>",
"播放页演员": "題材：$$</p>",
"播放页剧情": "class=\"des\">$$</div>",
"播放页二次截取": "空",
"播放页截取数组": "class=\"list$$</ul>",
"播放剧集二次截取": "空",
"播放剧集截取数组": "<a$$</a>",
"播放剧集标题": "class=\"content\">$$</div>",
"播放剧集链接": "href=\"$$\"",
"播放剧集链接前缀": "空",
"播放剧集链接后缀": "空",
"播放页跳转看图": "1"},

{"网站名字": "色小说【点高清跳转】",
"网站地址": "https://61671.xyz/",
"访问请求ua": "Mozilla/5.0 (Windows NT 10.0; Win64; x64) AppleWebKit/537.36 (KHTML, like Gecko) Chrome/88.0.4324.150 Safari/537.36",
"访问请求cookie": "空",
"访问请求referer": "空",
"播放请求头": "User-Agent$123",
"图片请求头": "空",
"网页编码": "utf-8",
"禁用搜索": "0",
"搜索手动验证": "0",
"集数倒序": "0",
"是否启用解析模式": "0",
"自动点击字符": "空",
"启用js加载源码":"0",
"js加载源码时间":"5",
"嗅探词": "m3u8?#.m3u8#.mp4#.flv#.mp3#.m4a",
"过滤词": "51.la#cnzz.com#baidu.com#bilibili.com",
"是否记录历史": "0",
"直接播放": "1",
"列表显示": "0",
"横图显示": "0",
"列表起始页": "1",
"列表分类": "小说一区$/dd/a.php?page=#小说二区$/dd/e.php?page=",
"列表后缀": "",
"列表二次截取": "空",
"列表截取数组": "class=\"colNovelList\"$$</a>",
"列表图片前缀": "空",
"列表图片": "https://us1.myximage.com/2022/08/14/e12d31359b084b8528a1a85ddb3c8c68.gif$$\"",
"列表标题": "class=\"container-title\">$$</div>",
"列表副标题": "class=\"pic-text text-right\">$$</span>",
"列表链接": "href=\"$$\"",
"列表链接前缀": "空",
"列表链接后缀": "空",
"播放页跳转看图": "1"},


{"网站名字": "迷妹网",
"网站地址": "https://612426.xyz/",
"访问请求ua": "Mozilla/5.0 (Windows NT 10.0; Win64; x64) AppleWebKit/537.36 (KHTML, like Gecko) Chrome/95.0.4638.69 Safari/537.36",
"访问请求cookie": "空",
"访问请求referer": "空",
"播放请求头": "User-Agent$123",
"图片请求头": "空",
"网页编码": "utf-8",
"禁用搜索": "0",
"搜索手动验证": "0",
"集数倒序": "0",
"是否启用解析模式": "0",
"自动点击字符": "0",
"启用js加载源码":"0",
"js加载源码时间":"10",
"嗅探词": "m3u8?#.m3u8#.mp4#.flv#.mp3#.m4a",
"过滤词": "51.la#cnzz.com#baidu.com#bilibili.com#?v=",
"是否记录历史": "0",
"直接播放": "0",
"列表显示": "0",
"横图显示": "0",
"列表起始页": "1",
"列表分类": "国产$/ad.php?id=8&page=#主播$/ad.php?id=10&page=#日韩$/ad.php?id=13&page=#欧美$/ad.php?id=7&page=#动漫$/ad.php?id=14&page=#伦理$/ad.php?id=5&page=",
"列表后缀": "",
 
"列表二次截取": "class=\"items$$</div>",
"列表截取数组": "<a$$</a>",
"列表图片前缀": "空",
"列表图片": "src=\"$$\"",
"列表标题": "<figcaption>$$</figcaption>",
"列表副标题": "class=\"pic-text text-right\">$$</span>",
"列表链接": "href=\"$$\"",
"列表链接前缀": "空",
"列表链接后缀": "空",
//0：get方式，1：post方式，注意：如果用post方式，【搜索模式】要填：1
"搜索请求方式": "0",
"搜索模式": "1",
"搜索前": "/index.php/art/type/id/5.html?wd=",
"搜索后": "",
"搜索连接后缀": "/voddetail/",
"搜索带翻页模式": "https://612469.xyz/index.php/art/type/id/5/page/翻页.html?wd=搜索词",
"搜索二次截取": "class=\"items$$</div>",
"搜索截取数组": "<a$$</a>",
"搜索图片前缀": "空",
"搜索图片": "src=\"$$\"",
"搜索标题": "\')$$</figcaption>",
"搜索副标题": "class=\"pic-text text-right\">$$</span>",
"搜索链接": "href=\"$$\"",
"搜索链接前缀": "空",
"搜索链接后缀": "空",
"播放页二次截取": "空",
"播放页截取数组": "const dp =$$</script>",
"播放剧集二次截取": "空",
"播放剧集截取数组": "{$$}",
"播放剧集标题": "type: \'$$\'",
"播放剧集链接": "url: \'$$\'",
"播放剧集链接前缀": "空",
"播放剧集链接后缀": "空"},






{"网站名字": "爱情岛论坛",
"网站地址": "https://61775.xyz/",
"访问请求ua": "Mozilla/5.0 (Windows NT 10.0; Win64; x64) AppleWebKit/537.36 (KHTML, like Gecko) Chrome/88.0.4324.150 Safari/537.36",
"访问请求cookie": "空",
"访问请求referer": "空",
"播放请求头": "User-Agent$123",
"图片请求头": "空",
"网页编码": "utf-8",
 
//0：不禁用，1：禁用
"禁用搜索": "0",
 
//0：不启用，1：启用
"启用js加载源码":"0",
"js加载源码时间":"5",
 
"嗅探词": "m3u8?#.m3u8#.mp4#.flv#.mp3#.m4a",
"过滤词": "51.la#cnzz.com#baidu.com#bilibili.com#?v=",
 
//0：记录，1：不记录
"是否记录历史": "0",
 
//0：否，1：是
"直接播放": "1",
"列表显示": "0",
"横图显示": "0",
"列表起始页": "1",
"列表分类": "中國・大陸$/index.php/vod/type/id/13/page/#Japan・日本$/index.php/vod/type/id/15/page/#韓国・대한$/index.php/vod/type/id/16/page/#中國・香港$/index.php/vod/type/id/34/page/#中國・台灣$/index.php/vod/type/id/35/page/#Asia・東南亞$/index.php/vod/type/id/36/page/#West・歐美$/index.php/vod/type/id/14/page/",
"列表后缀": ".html",
"列表二次截取": "空",
"列表截取数组": "class=\"thumbnail-cover$$</div>",
"列表图片前缀": "空",
"列表图片": "src=\"$$\"",
"列表标题": "&b=$$\"",
"列表副标题": "class=\"video-duration\">$$</span>",
"列表链接": "href=\"$$\"",
"列表链接前缀": "空",
"列表链接后缀": "空",
 
//0：get方式，1：post方式，注意：如果用post方式，【搜索模式】要填：1
"搜索请求方式": "0",
"搜索模式": "1",
"搜索前": "/index.php/vod/type/id/2/1.html?wd=",
"搜索后": "",
"搜索连接后缀": "/vod/",
"搜索二次截取": "空",
"搜索截取数组": "class=\"thumbnail-cover$$</div>",
"搜索图片前缀": "空",
"搜索图片": "src=\"$$\"",
"搜索标题": "&b=$$\"",
"搜索副标题": "class=\"video-duration\">$$</span>",
"搜索链接": "href=\"$$\"",
"搜索链接前缀": "空",
"搜索链接后缀": "空"},

{"网站名字": "Y片",
"网站地址": "https://612259.xyz/",
"访问请求ua": "Mozilla/5.0 (Windows NT 10.0; Win64; x64) AppleWebKit/537.36 (KHTML, like Gecko) Chrome/88.0.4324.150 Safari/537.36",
"访问请求cookie": "空",
"访问请求referer": "空",
"播放请求头": "User-Agent$123",
"图片请求头": "空",
"网页编码": "utf-8",

//0：不禁用，1：禁用
"禁用搜索": "0",

//0：不启用，1：启用
"启用js加载源码":"0",
"js加载源码时间":"5",

"嗅探词": "m3u8?#.m3u8#.mp4#.flv#.mp3#.m4a",
"过滤词": "51.la#cnzz.com#baidu.com#bilibili.com#?v=",

//0：记录，1：不记录
"是否记录历史": "0",

//0：否，1：是
"直接播放": "1",
"列表显示": "0",
"横图显示": "0",
"列表起始页": "1",
"列表分类": "中字$/index.php/vod/type/id/28/page/#无码$/index.php/vod/type/id/16/page/#日韩$/index.php/vod/type/id/15/page/#国产$/index.php/vod/type/id/13/page/#欧美$/index.php/vod/type/id/14/page/#动漫$/index.php/vod/type/id/29/page/",
"列表后缀": ".html",
"列表二次截取": "空",
"列表截取数组": "class=\"vodbox$$</a>",
"列表图片前缀": "空",
"列表图片": "data-original=\"$$\"",
"列表标题": "<p>$$</p>",
"列表副标题": "class=\"video-duration\">$$</span>",
"列表链接": "href=\"$$\"",
"列表链接前缀": "空",
"列表链接后缀": "空",

//0：get方式，1：post方式，注意：如果用post方式，【搜索模式】要填：1
"搜索请求方式": "0",
"搜索模式": "1",
"搜索前": "/index.php/vod/type/id/2.html?wd=",
"搜索后": "",
"搜索连接后缀": "/vod/",
"搜索二次截取": "空",
"搜索截取数组": "class=\"vodbox$$</a>",
"搜索图片前缀": "空",
"搜索图片": "data-original=\"$$\"",
"搜索标题": "<p>$$</p>",
"搜索副标题": "class=\"video-duration\">$$</span>",
"搜索链接": "href=\"$$\"",
"搜索链接前缀": "空",
"搜索链接后缀": "空",
"播放页截取数组": "const dp = $$</script>",
"播放剧集自动分割模式": "0",
"播放剧集数组分割字符": "空",//json数据播放链接都集合在一起时才用到，不用时填空或者不填或者删除这个字段
"播放剧集二次截取": "空",
"播放剧集截取数组": "({$$})",
"播放剧集标题": "type: \'$$\'",
"播放剧集链接": "url: \'$$\'",
"播放剧集链接前缀": "空",
"播放剧集链接后缀": "空"},


{"网站名字": "新香蕉资源",
"网站地址": "https://98xxoo.vip/", //https://660sav.cc/  https://ju54321.vip/
"访问请求ua": "Mozilla/5.0 (Windows NT 10.0; Win64; x64) AppleWebKit/537.36 (KHTML, like Gecko) Chrome/88.0.4324.150 Safari/537.36",
"访问请求cookie": "空",
"访问请求referer": "https://660sav.cc/",
"播放请求头": "User-Agent$123",
"图片请求头": "空",
"网页编码": "utf-8",
//0：不禁用，1：禁用
"禁用搜索": "0",
//0：不启用，1：启用
"搜索手动验证": "0",
//0：否，1：是
"集数倒序": "0",
//0：不启用，1：启用
"是否启用解析模式": "0",
//需要点击播放的网站可以自己找网页的点击js字符
"自动点击字符": "空",
//0：不启用，1：启用
"启用js加载源码":"0",
"js加载源码时间":"5",
"嗅探词": "m3u8?#.m3u8#.mp4#.flv#.mp3#.m4a",
"过滤词": "?url=#?v=#.css#51.la#cnzz.com#baidu.com#bilibili.com",
//0：记录，1：不记录
"是否记录历史": "0",
//0：否，1：是
"直接播放": "0",
"列表显示": "0",
"横图显示": "0",
"列表起始页": "1",
"列表分类": "3D同人$/cn/clm-3Dtongren-#中文无码$/cn/clm-zhongwenwuma-#中文综合$/cn/clm-zhongwenzonghe-#中文近亲$/cn/clm-zhongwenjingqing-#中文护士$/cn/clm-zhongwenhushi-#中文师生$/cn/clm-zhongwenshisheng-#中文强奸$/cn/clm-zhongwenqiangjian-#明星淫梦$/cn/clm-mingxingyinmeng-#国产自拍$/cn/clm-guochanzipai-#三级伦理$/cn/clm-sanjizonghe-#解说原片$/cn/clm-jieshuoyuanpian-#亚洲ＡＶ$/hd/hlm-yazhou-#自拍偷拍$/hd/hlm-zipaitoupai-#超清传媒$/hd/hlm-chaoqingchuanmei-#3D动漫$/hd/hlm-3Ddongman-#欧美ＡＶ$/hd/hlm-oumei-#乱伦人妻$/hd/hlm-luanlunrenqi-#丝袜制服$/hd/hlm-siwazhifu-#直播录播$/hd/hlm-zhibolubo-#SM另类$/hd/hlm-SMlinglei-#超清三级$/hd/hlm-chaoqingsanji-#综合传媒$/mdav/mlm-madouyuanchuang-#91制片厂$/mdav/mlm-91zhipianchang-#杏吧原创$/mdav/mlm-xingbayuanchuang-#糖心Vlgo$/mdav/mlm-tangxinVlgo-#天美传媒$/mdav/mlm-tianmeichuanmei-#蜜桃传媒$/mdav/mlm-mitaochuanmei-#星空传媒$/mdav/mlm-xingkongchuanmei-#精东影业$/mdav/mlm-jingdongyingye-#兔子先生$/mdav/mlm-tuzixiansheng-#大象传媒$/mdav/mlm-daxiangchuanmei-#VIP专区$/fcsp/flm-VIPzhuanqu-#偷拍系列$/fcsp/flm-toupaixilie-#国产自拍$/fcsp/flm-guochanzipai-#日本有码$/fcsp/flm-ribenyouma-#日本无码$/fcsp/flm-ribenwuma-#成人动漫$/fcsp/flm-chengrendongman-#韩国综合$/fcsp/flm-hanguozonghe-#VR专区$/fcsp/flm-VRzhuanqu-#欧美$/fcsp/flm-oumei-#国产自拍$/99sp/9lm-guochanzipai-#欧美$/99sp/9lm-oumei-#中文字幕$/99sp/9lm-zhongwenzimu-#李宗瑞全集$/99sp/9lm-lizongruiquanji-#日本无码$/99sp/9lm-ribenwuma-#加勒比$/99sp/9lm-jialebi-#日本有码$/99sp/9lm-ribenyouma-#一本道$/99sp/9lm-yibendao-#高清$/99sp/9lm-gaoqing-#潮吹$/99sp/9lm-chaochui-#会员认证作品$/99sp/9lm-jiujiurehuiyuanrenzhengzuopin-#制服丝袜$/99sp/9lm-zhifusiwa-#口爆颜射$/99sp/9lm-koubaoyanshe-#肛交$/99sp/9lm-gangjiao-#东京热$/99sp/9lm-dongjingre-#小格式综合$/99sp/9lm-xiaogeshizonghe-#女主播系列$/99sp/9lm-hanguonvzhuboxilie-#成人动漫$/99sp/9lm-chengrendongman-#SM性虐$/99sp/9lm-SMxingnue-#韩国综合$/99sp/9lm-hanguozonghe-",
"列表后缀": ".html",
"列表二次截取": "空",
"列表截取数组": "class=\"item\"$$</a>",
"列表图片前缀": "空",
"列表图片": "data-original=\"$$\"",
"列表标题": "title=\"$$\"",
"列表副标题": "class=\"duration\">$$</div>",
"列表链接": "href=\"$$\"",
"列表链接前缀": "空",
"列表链接后缀": "空",
//0：get方式，1：post方式，注意：如果用post方式，【搜索模式】要填：1
"搜索请求方式": "0",
"搜索模式": "1",
"搜索前": "/vod/search/wd/",
"搜索后": ".html",
"搜索连接后缀": "/vod/",
"搜索二次截取": "空",
"搜索截取数组": "class=\"item\"$$</a>",
"搜索图片前缀": "空",
"搜索图片": "original=\"$$\"",
"搜索标题": "title=\"$$\"",
"搜索副标题": "class=\"pic-text text-right\">$$</span>",
"搜索链接": "href=\"$$\"",
"搜索链接前缀": "空",
"搜索链接后缀": "空",
"播放页状态": "class=\"duration\">$$</div>",
"播放页导演": "class=\"rating positive\">$$</div>",
"播放页演员": "主演：$$</p>",
"播放页剧情": "class=\"title\">$$</strong>",
"播放页二次截取": "空",
"播放页截取数组": "player_aaaa={\"$$\"vod_director\":",
"播放剧集二次截取": "空",
"播放剧集截取数组": "flag\":$$\"vod_actor",
"播放剧集标题": "{\"vod_name\":\"$$\"",
"播放剧集链接": "\"link\":\"$$\"",
"播放剧集链接前缀": "空",
"播放剧集链接后缀": "空"},




{"网站名字": "影視部落VIP專區",
"网站地址": "https://www.movietrib.com/",//https://www.movietrib.com/
"访问请求ua": "Mozilla/5.0 (Windows NT 10.0; Win64; x64) AppleWebKit/537.36 (KHTML, like Gecko) Chrome/88.0.4324.150 Safari/537.36",
"访问请求cookie": "空",
"访问请求referer": "空",
"播放请求头": "User-Agent$123",
"图片请求头": "空",
"网页编码": "utf-8",
"禁用搜索": "0",
"搜索手动验证": "0",
"集数倒序": "0",
"是否启用解析模式": "0",
"自动点击字符": "空",
"启用js加载源码":"0",
"js加载源码时间":"5",
"嗅探词": "m3u8?#ixigua#.czspp#.m3u8#mp4#.flv#.mp3#.m4a#?video_id=",
"guolvdizhi": ".html#51.la#?url=#cnzz.com#baidu.com#tootw.com#auete.com#bilibili.com#m3u8.pw",
"是否记录历史": "0",
"直接播放": "0",
"列表显示": "0",
"横图显示": "0",
"列表起始页": "1",
"列表分类": "电影$/vod/show/id/140/page/#國產精品$/vod/show/id/140/tag/国产精品/page/#日韓無碼$/vod/show/id/140/tag/日韩无码/page/#中文字幕$/vod/show/id/140/tag/中文字幕/page/#歐美精品$/vod/show/id/140/tag/欧美精品/page/#成人動畫$/vod/show/id/140/tag/成人动画/page/#亞洲有碼$/vod/show/id/140/tag/亚洲有码/page/#其他類型$/vod/show/id/140/tag/其他类型/page/",
"列表后缀": ".html",
"列表二次截取": "<!-- 影片部分 -->$$</ul>",
"列表截取数组": "<a$$</a>",
"列表图片前缀": "空",
"列表图片": "original=\"$$\"",
"列表标题": "title=\"$$\"",
"列表副标题": "<i>$$</i>",
"列表链接": "href=\"$$\"",
"列表链接前缀": "空",
"列表链接后缀": "空",
//0：get方式，1：post方式，注意：如果用post方式，【搜索模式】要填：1
"搜索请求方式": "0",
"搜索模式": "0",
"搜索前": "/index.php/ajax/suggest?mid=1&wd=",
"搜索后": "&limit=150",
"搜索连接后缀": "/vod/detail/id/",
"搜索二次截取": "空",
"搜索截取数组": "前$$后",
"搜索图片前缀": "空",
"搜索图片": "original=\"$$\"",
"搜索标题": "title=\"$$\"",
"搜索副标题": "class=\"pic-text text-right\">$$</span>",
"搜索链接": "href=\"$$\"",
"搜索链接前缀": "空",
"搜索链接后缀": "空",
"启用线路名": "0",
"线路名二次截取": "空",
"线路名截取数组": "class=\"more$$</div>",
"线路名标题": "/>$$</h3>",
"播放页状态": "更新時間：$$</dd>",
"播放页导演": "导演：$$</p>",
"播放页演员": "主演：$$</dl>",
"播放页剧情": "劇情：$$</dd>",
"播放页二次截取": "空",
"播放页截取数组": "id=\"url_block$$<div",
"播放剧集二次截取": "空",
"播放剧集截取数组": "<a$$/a>",
"播放剧集标题": ">$$<",
"播放剧集链接": "href=\"$$\"",
"播放剧集链接前缀": "空",
"播放剧集链接后缀": "空",
"启用嗅探截取": "1",
"嗅探请求头": "User-Agent$Mozilla/5.0 (iPhone; CPU iPhone OS 13_2_3 like Mac OS X) AppleWebKit/605.1.15 (KHTML, like Gecko) Version/13.0.3 Mobile/15E148 Safari/604.1",//User-Agent$123#Referer$123
"播放地址二次截取": "var player_$$</div>",
"播放地址截取": "\"url\":\"$$\"",
"是否base64解码": "0",
"是否url解码": "0",
"官源是否走解析": "0",
"播放页跳转看图": "0"},

{"网站名字": "天天综合直播",
"网站地址": "https://apixj.com", //660sav.com
"访问请求ua": "Mozilla/5.0 (Linux; Android 6.0; Nexus 5 Build/MRA58N) AppleWebKit/537.36 (KHTML, like Gecko) Chrome/95.0.4638.69 Mobile Safari/537.36",
"访问请求cookie": "空",
"访问请求referer": "referer$https://4kkxx.vip/",
"播放请求头": "User-Agent$123",
"图片请求头": "空",
"网页编码": "utf-8",
"集数倒序": "0",
"禁用搜索": "0",
"搜索手动验证": "0",
"是否启用解析模式": "0",
"自动点击字符": "空",
"启用js加载源码":"0",
"js加载源码时间":"15",
"嗅探词": "m3u8?#.m3u8#.mp4#.flv#.mp3#.m4a",
"过滤词": "51.la#cnzz.com#baidu.com#bilibili.com",
"是否记录历史": "0",
"直接播放": "1",
"列表显示": "0",
"横图显示": "0",
"列表起始页": "1",
"列表分类": "亚洲直播$/?xx=yzzb-so-gwzb.html#欧美直播$/?xx=yzzb-so-omzb.html#卡哇伊直播$/?xx=jyav-so-kwy.html#蜜桃直播$/?xx=jyav-so-mt.html#小妲己直播$/?xx=jyav-so-xdj.html#LOVE直播$/?xx=jyav-so-love.html#77直播$/?xx=jyav-so-qq.html#依依直播$/?xx=jyav-so-yy.html#久久直播$/?xx=jyav-so-ym.html#亚米直播$/?xx=jyav-so-ym.html#蝶恋直播$/?xx=jyav-so-ld.html#夜妖姬直播$/?xx=jyav-so-yyj.html#套路直播$/?xx=jyav-so-yh.html#樱花直播$/?xx=jyav-so-yh.html#享色直播$/?xx=jyav-so-xs.html#红浪漫直播$/?xx=jyav-so-hlm.html#金鱼直播$/?xx=jyav-so-jy.html#桃花直播$/?xx=jyav-so-th.html#花房直播$/?xx=jyav-so-hf.html#视觉秀直播$/?xx=jyav-so-sjx.html#小天使直播$/?xx=jyav-so-xts.html#咪咪直播$/?xx=jyav-so-mm.html#黄瓜直播$/?xx=jyav-so-hg.html#色趣直播$/?xx=jyav-so-sq.html#糯米直播$/?xx=jyav-so-nm.html#小蜜蜂直播$/?xx=jyav-so-xmf.html#桃花运直播$/?xx=jyav-so-thy.html#苦瓜直播$/?xx=jyav-so-kg.html#樱花雨直播$/?xx=jyav-so-yh.html#盘他直播$/?xx=jyav-so-pt.html#夜色直播$/?xx=jyav-so-ys.html#小天仙直播$/?xx=jyav-so-xtx.html#杏趣直播$/?xx=jyav-so-xq.html#小坏蛋直播$/?xx=jyav-so-xhd.html#飘雪直播$/?xx=jyav-so-px.html#樱桃直播$/?xx=jyav-so-yt.html#奥斯卡直播$/?xx=jyav-so-ask.html#花仙子直播$/?xx=jyav-so-hxz.html#小X感直播$/?xx=jyav-so-xxg.html",
"列表后缀": "",
//提示：类型剧情地区年代排序可以自由选择是否显示，注意和分类链接要联动，不显示的分类链接就去掉那个分类的动态词
//0:否，1：是
"列表二次截取": "空",
"列表截取数组": "class=\"item \"><a$$</a>",
"列表图片前缀": "空",
"列表图片": "original=\"$$\"",
"列表标题": "title=\"$$\"",
"列表副标题": "class=\"duration\">$$</div>",
"列表链接": "href=\"$$\"",
"列表链接前缀": "空",
"列表链接后缀": "空"},


{"网站名字": "天天综合直播",
"网站地址": "https://sezb.xyz/", //660sav.com
"访问请求ua": "Mozilla/5.0 (Linux; Android 6.0; Nexus 5 Build/MRA58N) AppleWebKit/537.36 (KHTML, like Gecko) Chrome/95.0.4638.69 Mobile Safari/537.36",
"访问请求cookie": "空",
"访问请求referer": "空",
"播放请求头": "User-Agent$123",
"图片请求头": "空",
"网页编码": "utf-8",
"集数倒序": "0",
"禁用搜索": "0",
"搜索手动验证": "0",
"是否启用解析模式": "0",
"自动点击字符": "空",
"启用js加载源码":"0",
"js加载源码时间":"5",
"嗅探词": "m3u8?#.m3u8#.mp4#.flv#.mp3#.m4a",
"过滤词": "51.la#cnzz.com#baidu.com#bilibili.com",
"是否记录历史": "0",
"直接播放": "1",
"列表显示": "0",
"横图显示": "0",
"列表起始页": "1",
"列表分类": "亚洲直播$/?vip=yzzb/zb/gwzb/#中文直播$/?vip=yzzb/zb/cnzb/#日语直播$/?vip=yzzb/zb/ryzb/#越语直播$/?vip=yzzb/zb/yyzb/#欧美直播$/?vip=yzzb/zb/omzb/#俄国直播$/?vip=yzzb/zb/egzb/#乌克兰直播$/?vip=yzzb/zb/wkl/#卡哇伊直播(安卓)$/?vip=xxj/zb/kwy/#咪狐直播(安卓)$/?vip=xxj/zb/mh/#蜜桃直播(安卓)$/?vip=xxj/zb/mt/#小妲己直播(安卓)$/?vip=xxj/zb/xdj/#LOVE直播(安卓)$/?vip=xxj/zb/love/#番茄直播(安卓)$/?vip=xxj/zb/fq/#77直播(安卓)$/?vip=xxj/zb/qq/#依依直播(安卓)$/?vip=xxj/zb/yy/#日出直播(安卓)$/?vip=xxj/zb/rc/#彩虹直播(安卓)$/?vip=xxj/zb/ch/#久久直播(安卓)$/?vip=xxj/zb/jj/#亚米直播(安卓)$/?vip=xxj/zb/ym/#蝶恋直播(安卓)$/?vip=xxj/zb/ld/#夜妖姬直播(安卓)$/?vip=xxj/zb/yyj/#套路直播(安卓)$/?vip=xxj/zb/tl/#樱花直播(安卓)$/?vip=xxj/zb/yh/#享色直播(安卓)$/?vip=xxj/zb/xs/#红浪漫直播(安卓)$/?vip=xxj/zb/hlm/#金鱼直播(安卓)$/?vip=xxj/zb/jy/#桃花直播(安卓)$/?vip=xxj/zb/th/#花房直播(安卓)$/?vip=xxj/zb/hf/#小仙女直播(安卓)$/?vip=xxj/zb/xxn/#视觉秀直播(安卓)$/?vip=xxj/zb/sjx/#小天使直播(安卓)$/?vip=xxj/zb/xts/#彩云直播(安卓)$/?vip=xxj/zb/cy/#咪咪直播(安卓)$/?vip=xxj/zb/mm/#娇媚直播(安卓)$/?vip=xxj/zb/jm/#黄瓜直播(安卓)$/?vip=xxj/zb/hg/#色趣直播(安卓)$/?vip=xxj/zb/sq/#糯米直播(安卓)$/?vip=xxj/zb/nm/#小蜜蜂直播(安卓)$/?vip=xxj/zb/xmf/#小红帽直播(安卓)$/?vip=xxj/zb/xhm/#桃花运直播(安卓)$/?vip=xxj/zb/thy/#苦瓜直播(安卓)$/?vip=xxj/zb/kg/#爱爱你直播(安卓)$/?vip=xxj/zb/aan/#樱花雨直播(安卓)$/?vip=xxj/zb/yh/#盘他直播(安卓)$/?vip=xxj/zb/pt/#夜色直播(安卓)$/?vip=xxj/zb/ys/#蝴蝶直播(安卓)$/?vip=xxj/zb/hd/#小天仙直播(安卓)$/?vip=xxj/zb/xtx/#杏趣直播(安卓)$/?vip=xxj/zb/xq/#小坏蛋直播(安卓)$/?vip=xxj/zb/xhd/#飘雪直播(安卓)$/?vip=xxj/zb/px/#樱桃直播(安卓)$/?vip=xxj/zb/yt/#奥斯卡直播(安卓)$/?vip=xxj/zb/ask/#兔女郎直播(安卓)$/?vip=xxj/zb/tnl/#花仙子直播(安卓)$/?vip=xxj/zb/hxz/#小性感直播(安卓)$$/?vip=xxj/zb/xxg/",
"列表后缀": ".html",
//提示：类型剧情地区年代排序可以自由选择是否显示，注意和分类链接要联动，不显示的分类链接就去掉那个分类的动态词
//0:否，1：是
"列表二次截取": "空",
"列表截取数组": "class=\"item \">$$</a>",
"列表图片前缀": "空",
"列表图片": "original=\"$$\"",
"列表标题": "title=\"$$\"",
"列表副标题": "class=\"duration\">$$</div>",
"列表链接": "href=\"$$\"",
"列表链接前缀": "空",
"列表链接后缀": "空"},

{"网站名字": "香蕉中文资源",
"网站地址": "https://44xoxo.vip/",  //https://www.660sav.top/  https://www.ju54321.top/
"访问请求ua": "Mozilla/5.0 (Windows NT 10.0; Win64; x64) AppleWebKit/537.36 (KHTML, like Gecko) Chrome/88.0.4324.150 Safari/537.36",
"访问请求cookie": "空",
"访问请求referer": "空",
"播放请求头": "User-Agent$123",
"图片请求头": "空",
"网页编码": "utf-8",
//0：不禁用，1：禁用
"禁用搜索": "0",
//0：不启用，1：启用
"搜索手动验证": "0",
//0：否，1：是
"集数倒序": "0",
//0：不启用，1：启用
"是否启用解析模式": "0",
//需要点击播放的网站可以自己找网页的点击js字符
"自动点击字符": "空",
//0：不启用，1：启用
"启用js加载源码":"0",
"js加载源码时间":"5",
"嗅探词": "m3u8?#.m3u8#.mp4#.flv#.mp3#.m4a",
"过滤词": "?url=#?v=#.css#51.la#cnzz.com#baidu.com#bilibili.com",
//0：记录，1：不记录
"是否记录历史": "0",
//0：否，1：是
"直接播放": "0",
"列表显示": "0",
"横图显示": "0",
"列表起始页": "1",
"列表分类": "中文无码$/xjzy/cn-zhongwenwuma-#中文综合$/xjzy/cn-zhongwenzonghe-#中文近亲$/xjzy/cn-zhongwenjingqing-#中文护士$/xjzy/cn-zhongwenhushi-#中文师生$/xjzy/cn-zhongwenshisheng-#中文强奸$/xjzy/cn-zhongwenqiangjian-#明星淫梦$/xjzy/cn-mingxingyinmeng-#国产自拍$/xjzy/cn-guochanzipai-#三级伦理$/xjzy/cn-sanjizonghe-#解说原片$/xjzy/cn-jieshuoyuanpian-#3D同人$/xjzy/cn-3Dtongren-",
"列表后缀": ".html",
"列表二次截取": "空",
"列表截取数组": "class=\"item\"$$</a>",
"列表图片前缀": "空",
"列表图片": "data-original=\"$$\"",
"列表标题": "title=\"$$\"",
"列表副标题": "class=\"duration\">$$</div>",
"列表链接": "href=\"$$\"",
"列表链接前缀": "空",
"列表链接后缀": "空",
//0：get方式，1：post方式，注意：如果用post方式，【搜索模式】要填：1
"搜索请求方式": "0",
"搜索模式": "1",
"搜索前": "/vod/search/wd/",
"搜索后": ".html",
"搜索连接后缀": "/vod/",
"搜索二次截取": "空",
"搜索截取数组": "class=\"item\"$$</a>",
"搜索图片前缀": "空",
"搜索图片": "original=\"$$\"",
"搜索标题": "title=\"$$\"",
"搜索副标题": "class=\"pic-text text-right\">$$</span>",
"搜索链接": "href=\"$$\"",
"搜索链接前缀": "空",
"搜索链接后缀": "空",
"播放页状态": "class=\"duration\">$$</div>",
"播放页导演": "class=\"rating positive\">$$</div>",
"播放页演员": "主演：$$</p>",
"播放页剧情": "class=\"title\">$$</strong>",
"播放页二次截取": "空",
"播放页截取数组": "player_aaaa={\"$$\"vod_director\":",
"播放剧集二次截取": "空",
"播放剧集截取数组": "flag\":$$\"vod_actor",
"播放剧集标题": "{\"vod_name\":\"$$\"",
"播放剧集链接": "\"link\":\"$$\"",
"播放剧集链接前缀": "空",
"播放剧集链接后缀": "空"},

{"网站名字": "新香蕉超清资源",
"网站地址": "https://44xoxo.vip/",//https://660sav.vip/
"访问请求ua": "Mozilla/5.0 (Windows NT 10.0; Win64; x64) AppleWebKit/537.36 (KHTML, like Gecko) Chrome/88.0.4324.150 Safari/537.36",
"访问请求cookie": "空",
"访问请求referer": "referer$https://660sav.cc/",
"播放请求头": "User-Agent$123",
"图片请求头": "空",
"网页编码": "utf-8",
//0：不禁用，1：禁用
"禁用搜索": "0",
//0：不启用，1：启用
"搜索手动验证": "0",
//0：否，1：是
"集数倒序": "0",
//0：不启用，1：启用
"是否启用解析模式": "0",
//需要点击播放的网站可以自己找网页的点击js字符
"自动点击字符": "空",
//0：不启用，1：启用
"启用js加载源码":"0",
"js加载源码时间":"5",
"嗅探词": "m3u8?#.m3u8#.mp4#.flv#.mp3#.m4a",
"过滤词": "?url=#?v=#.css#51.la#cnzz.com#baidu.com#bilibili.com",
//0：记录，1：不记录
"是否记录历史": "0",
//0：否，1：是
"直接播放": "0",
"列表显示": "0",
"横图显示": "0",
"列表起始页": "1",
"列表分类": "亚洲ＡＶ$/cq/2k-yazhou-#自拍偷拍$/cq/2k-zipaitoupai-#超清传媒$/cq/2k-chaoqingchuanmei-#3D动漫$/cq/2k-3Ddongman-#欧美ＡＶ$/cq/2k-oumei-#乱伦人妻$/cq/2k-luanlunrenqi-#丝袜制服$/cq/2k-siwazhifu-#直播录播$/cq/2k-zhibolubo-#SM另类$/cq/2k-SMlinglei-#超清三级$/cq/2k-chaoqingsanji-",
"列表后缀": ".html",
"列表二次截取": "空",
"列表截取数组": "class=\"item\"$$</a>",
"列表图片前缀": "空",
"列表图片": "data-original=\"$$\"",
"列表标题": "title=\"$$\"",
"列表副标题": "class=\"duration\">$$</div>",
"列表链接": "href=\"$$\"",
"列表链接前缀": "空",
"列表链接后缀": "空",
//0：get方式，1：post方式，注意：如果用post方式，【搜索模式】要填：1
"搜索请求方式": "0",
"搜索模式": "1",
"搜索前": "/vod/search/wd/",
"搜索后": ".html",
"搜索连接后缀": "/vod/",
"搜索二次截取": "空",
"搜索截取数组": "class=\"item\"$$</a>",
"搜索图片前缀": "空",
"搜索图片": "original=\"$$\"",
"搜索标题": "title=\"$$\"",
"搜索副标题": "class=\"pic-text text-right\">$$</span>",
"搜索链接": "href=\"$$\"",
"搜索链接前缀": "空",
"搜索链接后缀": "空",
"播放页状态": "class=\"duration\">$$</div>",
"播放页导演": "class=\"rating positive\">$$</div>",
"播放页演员": "主演：$$</p>",
"播放页剧情": "class=\"title\">$$</strong>",
"播放页二次截取": "空",
"播放页截取数组": "player_aaaa={\"$$\"vod_director\":",
"播放剧集二次截取": "空",
"播放剧集截取数组": "flag\":$$\"vod_actor",
"播放剧集标题": "{\"vod_name\":\"$$\"",
"播放剧集链接": "\"link\":\"$$\"",
"播放剧集链接前缀": "空",
"播放剧集链接后缀": "空"},

{"网站名字": "新香蕉国产传媒",
"网站地址": "https://44xoxo.vip/", //https://660sav.cc/  https://ju54321.vip/
"访问请求ua": "Mozilla/5.0 (Windows NT 10.0; Win64; x64) AppleWebKit/537.36 (KHTML, like Gecko) Chrome/88.0.4324.150 Safari/537.36",
"访问请求cookie": "空",
"访问请求referer": "https://660sav.cc/",
"播放请求头": "User-Agent$123",
"图片请求头": "空",
"网页编码": "utf-8",
//0：不禁用，1：禁用
"禁用搜索": "0",
//0：不启用，1：启用
"搜索手动验证": "0",
//0：否，1：是
"集数倒序": "0",
//0：不启用，1：启用
"是否启用解析模式": "0",
//需要点击播放的网站可以自己找网页的点击js字符
"自动点击字符": "空",
//0：不启用，1：启用
"启用js加载源码":"0",
"js加载源码时间":"5",
"嗅探词": "m3u8?#.m3u8#.mp4#.flv#.mp3#.m4a",
"过滤词": "?url=#?v=#.css#51.la#cnzz.com#baidu.com#bilibili.com",
//0：记录，1：不记录
"是否记录历史": "0",
//0：否，1：是
"直接播放": "0",
"列表显示": "0",
"横图显示": "0",
"列表起始页": "1",
"列表分类": "综合传媒$/gccm/91-madouyuanchuang-#91制片厂$/gccm/91-91zhipianchang-#杏吧原创$/gccm/91-xingbayuanchuang-#糖心Vlgo$/gccm/91-tangxinVlgo-#天美传媒$/gccm/91-tianmeichuanmei-#蜜桃传媒$/gccm/91-mitaochuanmei-#星空传媒$/gccm/91-xingkongchuanmei-#精东影业$/gccm/91-jingdongyingye-#兔子先生$/gccm/91-tuzixiansheng-#大象传媒$/gccm/91-daxiangchuanmei-",
"列表后缀": ".html",
"列表二次截取": "空",
"列表截取数组": "class=\"item\"$$</a>",
"列表图片前缀": "空",
"列表图片": "data-original=\"$$\"",
"列表标题": "title=\"$$\"",
"列表副标题": "class=\"duration\">$$</div>",
"列表链接": "href=\"$$\"",
"列表链接前缀": "空",
"列表链接后缀": "空",
 
//0：get方式，1：post方式，注意：如果用post方式，【搜索模式】要填：1
"搜索请求方式": "0",
"搜索模式": "1",
"搜索前": "/vod/search/wd/",
"搜索后": ".html",
"搜索连接后缀": "/vod/",
"搜索二次截取": "空",
"搜索截取数组": "class=\"item\"$$</a>",
"搜索图片前缀": "空",
"搜索图片": "original=\"$$\"",
"搜索标题": "title=\"$$\"",
"搜索副标题": "class=\"pic-text text-right\">$$</span>",
"搜索链接": "href=\"$$\"",
"搜索链接前缀": "空",
"搜索链接后缀": "空",
"播放页状态": "class=\"duration\">$$</div>",
"播放页导演": "class=\"rating positive\">$$</div>",
"播放页演员": "主演：$$</p>",
"播放页剧情": "class=\"title\">$$</strong>",
"播放页二次截取": "空",
"播放页截取数组": "player_aaaa={\"$$\"vod_director\":",
"播放剧集二次截取": "空",
"播放剧集截取数组": "flag\":$$\"vod_actor",
"播放剧集标题": "{\"vod_name\":\"$$\"",
"播放剧集链接": "\"link\":\"$$\"",
"播放剧集链接前缀": "空",
"播放剧集链接后缀": "空"},


{"网站名字": "新香蕉久久资源",
"网站地址": "https://44xoxo.vip/", //https://660sav.cc/  https://ju54321.vip/
"访问请求ua": "Mozilla/5.0 (Windows NT 10.0; Win64; x64) AppleWebKit/537.36 (KHTML, like Gecko) Chrome/88.0.4324.150 Safari/537.36",
"访问请求cookie": "空",
"访问请求referer": "https://660sav.cc/",
"播放请求头": "User-Agent$123",
"图片请求头": "空",
"网页编码": "utf-8",
//0：不禁用，1：禁用
"禁用搜索": "0",
//0：不启用，1：启用
"搜索手动验证": "0",
//0：否，1：是
"集数倒序": "0",
//0：不启用，1：启用
"是否启用解析模式": "0",
//需要点击播放的网站可以自己找网页的点击js字符
"自动点击字符": "空",
//0：不启用，1：启用
"启用js加载源码":"0",
"js加载源码时间":"5",
"嗅探词": "m3u8?#.m3u8#.mp4#.flv#.mp3#.m4a",
"过滤词": "?url=#?v=#.css#51.la#cnzz.com#baidu.com#bilibili.com",
//0：记录，1：不记录
"是否记录历史": "0",
//0：否，1：是
"直接播放": "0",
"列表显示": "0",
"横图显示": "0",
"列表起始页": "1",
"列表分类": "国产自拍$/99re/kdw-guochanzipai-#欧美$/99re/kdw-oumei-#中文字幕$/99re/kdw-zhongwenzimu-#李宗瑞全集$/99re/kdw-lizongruiquanji-#日本无码$/99re/kdw-ribenwuma-#加勒比$/99re/kdw-jialebi-#日本有码$/99re/kdw-ribenyouma-#一本道$/99re/kdw-yibendao-#高清$/99re/kdw-gaoqing-#潮吹$/99re/kdw-chaochui-#会员认证作品$/99re/kdw-jiujiurehuiyuanrenzhengzuopin-#制服丝袜$/99re/kdw-zhifusiwa-#口爆颜射$/99re/kdw-koubaoyanshe-#肛交$/99re/kdw-gangjiao-#东京热$/99re/kdw-dongjingre-#小格式综合$/99re/kdw-xiaogeshizonghe-#女主播系列$/99re/kdw-hanguonvzhuboxilie-#成人动漫$/99re/kdw-chengrendongman-#SM性虐$/99re/kdw-SMxingnue-#韩国综合$/99re/kdw-hanguozonghe-",
"列表后缀": ".html",
"列表二次截取": "空",
"列表截取数组": "class=\"item\"$$</a>",
"列表图片前缀": "空",
"列表图片": "data-original=\"$$\"",
"列表标题": "title=\"$$\"",
"列表副标题": "class=\"duration\">$$</div>",
"列表链接": "href=\"$$\"",
"列表链接前缀": "空",
"列表链接后缀": "空",
//0：get方式，1：post方式，注意：如果用post方式，【搜索模式】要填：1
"搜索请求方式": "0",
"搜索模式": "1",
"搜索前": "/vod/search/wd/",
"搜索后": ".html",
"搜索连接后缀": "/vod/",
"搜索二次截取": "空",
"搜索截取数组": "class=\"item\"$$</a>",
"搜索图片前缀": "空",
"搜索图片": "original=\"$$\"",
"搜索标题": "title=\"$$\"",
"搜索副标题": "class=\"pic-text text-right\">$$</span>",
"搜索链接": "href=\"$$\"",
"搜索链接前缀": "空",
"搜索链接后缀": "空",
"播放页状态": "class=\"duration\">$$</div>",
"播放页导演": "class=\"rating positive\">$$</div>",
"播放页演员": "主演：$$</p>",
"播放页剧情": "class=\"title\">$$</strong>",
"播放页二次截取": "空",
"播放页截取数组": "player_aaaa={\"$$\"vod_director\":",
"播放剧集二次截取": "空",
"播放剧集截取数组": "flag\":$$\"vod_actor",
"播放剧集标题": "{\"vod_name\":\"$$\"",
"播放剧集链接": "\"link\":\"$$\"",
"播放剧集链接前缀": "空",
"播放剧集链接后缀": "空"},


{"网站名字": "香蕉废柴资源",
"网站地址": "https://44xoxo.vip/",  //https://660sav.cc/  https://ju54321.vip/
"访问请求ua": "Mozilla/5.0 (Windows NT 10.0; Win64; x64) AppleWebKit/537.36 (KHTML, like Gecko) Chrome/88.0.4324.150 Safari/537.36",
"访问请求cookie": "空",
"访问请求referer": "referer$https://660sav.cc/",
"播放请求头": "User-Agent$123",
"图片请求头": "空",
"网页编码": "utf-8",
//0：不禁用，1：禁用
"禁用搜索": "0",
//0：不启用，1：启用
"搜索手动验证": "0",
//0：否，1：是
"集数倒序": "0",
//0：不启用，1：启用
"是否启用解析模式": "0",
//需要点击播放的网站可以自己找网页的点击js字符
"自动点击字符": "空",
//0：不启用，1：启用
"启用js加载源码":"0",
"js加载源码时间":"5",
"嗅探词": "m3u8?#.m3u8#.mp4#.flv#.mp3#.m4a",
"过滤词": "?url=#?v=#.css#51.la#cnzz.com#baidu.com#bilibili.com",
//0：记录，1：不记录
"是否记录历史": "0",
//0：否，1：是
"直接播放": "0",
"列表显示": "0",
"横图显示": "0",
"列表起始页": "1",
"列表分类": "VIP专区$/fcw/ff-VIPzhuanqu-#偷拍系列$/fcw/ff-toupaixilie-#国产自拍$/fcw/ff-guochanzipai-#日本有码$/fcw/ff-ribenyouma-#日本无码$/fcw/ff-ribenwuma-#成人动漫$/fcw/ff-chengrendongman-#韩国综合$/fcw/ff-hanguozonghe-#VR专区$/fcw/ff-VRzhuanqu-#欧美$/fcw/ff-oumei-",
"列表后缀": ".html",
"列表二次截取": "空",
"列表截取数组": "class=\"item\"$$</a>",
"列表图片前缀": "空",
"列表图片": "data-original=\"$$\"",
"列表标题": "title=\"$$\"",
"列表副标题": "class=\"duration\">$$</div>",
"列表链接": "href=\"$$\"",
"列表链接前缀": "空",
"列表链接后缀": "空",
//0：get方式，1：post方式，注意：如果用post方式，【搜索模式】要填：1
"搜索请求方式": "0",
"搜索模式": "1",
"搜索前": "/vod/search/wd/",
"搜索后": ".html",
"搜索连接后缀": "/vod/",
"搜索二次截取": "空",
"搜索截取数组": "class=\"item\"$$</a>",
"搜索图片前缀": "空",
"搜索图片": "original=\"$$\"",
"搜索标题": "title=\"$$\"",
"搜索副标题": "class=\"pic-text text-right\">$$</span>",
"搜索链接": "href=\"$$\"",
"搜索链接前缀": "空",
"搜索链接后缀": "空",
"播放页状态": "class=\"duration\">$$</div>",
"播放页导演": "class=\"rating positive\">$$</div>",
"播放页演员": "主演：$$</p>",
"播放页剧情": "class=\"title\">$$</strong>",
"播放页二次截取": "空",
"播放页截取数组": "player_aaaa={\"$$\"vod_director\":",
"播放剧集二次截取": "空",
"播放剧集截取数组": "flag\":$$\"vod_actor",
"播放剧集标题": "{\"vod_name\":\"$$\"",
"播放剧集链接": "\"link\":\"$$\"",
"播放剧集链接前缀": "空",
"播放剧集链接后缀": "空"},

{"网站名字": "哚哚电影网",
"网站地址": "https://www.duo608.top",
"访问请求ua": "Mozilla/5.0 (Windows NT 10.0; Win64; x64) AppleWebKit/537.36 (KHTML, like Gecko) Chrome/95.0.4638.69 Safari/537.36",
"访问请求cookie": "",
"访问请求referer": "空",
"播放请求头": "User-Agent$123",
"图片请求头": "空",
"网页编码": "gb2312",
"集数倒序": "0",
"禁用搜索": "0",
"搜索手动验证": "0",
"是否启用解析模式": "0",
"自动点击字符": "空",
"启用js加载源码":"0",
"js加载源码时间":"10",
"嗅探词": "m3u8?#.m3u8#.mp4#.flv#.mp3#.m4a",
"过滤词": "51.la#cnzz.com#baidu.com#bilibili.com",
"是否记录历史": "0",
"直接播放": "0",
"列表显示": "0",
"横图显示": "0",
"列表起始页": "2",
"列表分类": "视频一$/W/26_#视频二$/W/22_#视频三$/W/23_#视频四$/W/32_#视频五$/W/36_#原创区$/W/30_#字幕一$/W/27_#字幕二$/W/28_#骑兵一$/W/17_#骑兵二$/W/33_#步兵区$/W/24_#主播一$/W/31_#主播二$/W/34_#欧美区$/W/29_#H动漫$/W/25_#水果派$/W/35_",
"列表后缀": ".html",
"列表二次截取": "空",
"列表截取数组": "class=\"ah$$</li>",
"列表图片前缀": "空",
"列表图片": "src=\"$$\"",
"列表标题": "alt=\"$$\"",
"列表副标题": "时间：$$</p>",
"列表链接": "href=\"$$\"",
"列表链接前缀": "空",
"列表链接后缀": "空",
//0：get方式，1：post方式，注意：如果用post方式，【搜索模式】要填：1
"搜索请求方式": "0",
"搜索模式": "1",
"搜索前": "https://www.duo608.top/search.asp?searchword=",
"搜索后": "",
"搜索连接后缀": "/vod/",
"搜索带翻页模式": "http://www.xx.com/vod/search/page/翻页/wd/搜索词.html",
"搜索二次截取": "空",
"搜索截取数组": "class=\"ah$$</h2>",
"搜索图片前缀": "空",
"搜索图片": "src=\"$$\"",
"搜索标题": "alt=\"$$\"",
"搜索副标题": "class=\"pic-text text-right\">$$</span>",
"搜索链接": "href=\"$$\"",
"搜索链接前缀": "空",
"搜索链接后缀": "空",
"启用线路名": "0",
"线路名二次截取": "空",
"线路名截取数组": "class=\"panel-heading$$</div>",
"线路名标题": ". $$ (",
"线路名数组分割字符": "空",//json数据才用到，不用时填空或者不填或者删除这个字段
"播放页状态": "年份：$$</dl>",
"播放页导演": "番号：$$</dl>",
"播放页演员": "主演：$$</dl>",
"播放页剧情": "类型：$$</dl>",
"播放页二次截取": "空",
"播放页截取数组": "class=\"movurl$$</ul>",
"播放剧集自动分割模式": "0",
"播放剧集数组分割字符": "空",//json数据播放链接都集合在一起时才用到，不用时填空或者不填或者删除这个字段
"播放剧集二次截取": "空",
"播放剧集截取数组": "<a$$/a>",
"播放剧集标题": ">$$<",
"播放剧集链接": "href=\'$$\'",
"播放剧集链接前缀": "空",
"播放剧集链接后缀": "空"},

{"网站名字": "色最色",
"网站地址": "https://色最色.com/",// 地址发布页 https://helpfindgoodsite.com/
"访问请求ua": "Mozilla/5.0 (Windows NT 10.0; Win64; x64) AppleWebKit/537.36 (KHTML, like Gecko) Chrome/95.0.4638.69 Safari/537.36",
//"访问请求ua": "User-Agent$Dart/2.14 (dart:io)#Referer$123",
"访问请求cookie": "空",
"访问请求referer": "空",
"播放请求头": "User-Agent$123",
"图片请求头": "空",
"网页编码": "utf-8",
"禁用搜索": "0",
"搜索手动验证": "0",
"集数倒序": "0",
"是否启用解析模式": "0",
"自动点击字符": "空",
"启用js加载源码":"0",
"js加载源码时间":"5",
"嗅探词": "m3u8?#ixigua#.czspp#.m3u8#mp4#.flv#.mp3#.m4a#?video_id=",
"guolvdizhi": ".html#51.la#?url=#cnzz.com#baidu.com#tootw.com#auete.com#bilibili.com#m3u8.pw",
"是否记录历史": "0",
"直接播放": "1",
"列表显示": "0",
"横图显示": "0",
"列表起始页": "1",
"列表分类": "国产精品$/list-read-id-19-p-#偷拍自拍$/list-read-id-20-p-#欧美成人$/list-read-id-26-p-#中文无码$/list-read-id-23-p-#中文字幕$/list-read-id-22-p-#亚洲情色$/list-read-id-21-p-#卡通动漫$/list-read-id-24-p-#成人伦理$/list-read-id-25-p-",
"列表后缀": "",
"列表二次截取": "空",
"列表截取数组": "class=\"ff-vodlist__box\"$$</li>",
"列表图片前缀": "空",
"列表图片": "data-original=\"$$\"",
"列表标题": "title=\"$$\"",
"列表副标题": "class=\"pic-text text-right\">$$</span>",
"列表链接": "href=\"$$\"",
"列表链接前缀": "空",
"列表链接后缀": "空"},









 
 {"网站名字": "咪咪影院",  //收藏分享永久发布页:mmyy.tv
"网站地址": "https://www.mmyy2.cc/",
"访问请求ua": "Mozilla/5.0 (Windows NT 10.0; Win64; x64) AppleWebKit/537.36 (KHTML, like Gecko) Chrome/95.0.4638.69 Safari/537.36",
"访问请求cookie": "空",
"访问请求referer": "空",
"播放请求头": "User-Agent$123",
"图片请求头": "空",
"网页编码": "utf-8",
 
//0：不禁用，1：禁用
"禁用搜索": "0",
 
//0：不启用，1：启用
"启用js加载源码":"0",
"js加载源码时间":"5",
 
"嗅探词": "m3u8?#.m3u8#.mp4#.flv#.mp3#.m4a",
"过滤词": "51.la#cnzz.com#baidu.com#bilibili.com",
 
//0：记录，1：不记录
"是否记录历史": "0",
 
//0：否，1：是
"直接播放": "0",
"列表显示": "0",
"横图显示": "0",
"列表起始页": "1",
"列表分类": "国产高清$/guochangaoqing/#日韩无码$/rihanwuma/#日韩有码$/rihanyouma/#纯爱素人$/chunaisuren/#中文字幕$/zhongwenzimu/#成人动漫$/chengrendongman/#三级伦理$/sanjilunli/#欧美情色$/oumeiqingse/#巨乳美乳$/jurumeiru/#AI换脸$/AIhuanlian/#人气主播$/renqizhubo/#少女萝莉$/shaonvluoli/#制服诱惑$/zhifuyouhuo/#强奸乱伦$/qiangjianluanlun/#变态另类$/biantailinglei/#熟女人妻$/shunvrenqi/#自拍偷拍$/zipaitoupai/#海外明星$/haiwaimingxing/#JAV专区$/JAVzhuanqu/",
"列表后缀": ".html",
"列表二次截取": "空",
"列表截取数组": "class=\"vod-img\"$$class=\"vod\"",
"列表图片前缀": "空",
"列表图片": "data-original=\"$$\"",
"列表标题": "class=\"vod-txt\">$$</div>",
"列表副标题": "class=\"module-item-note\">$$</div>",
"列表链接": "href=\"$$\"",
"列表链接前缀": "空",
"列表链接后缀": "空",
//0：get方式，1：post方式，注意：如果用post方式，【搜索模式】要填：1
"搜索请求方式": "0",
"搜索模式": "1",
"搜索前": "/search/",
"搜索后": ".html",
"搜索连接后缀": "/vod/",
"搜索二次截取": "空",
"搜索截取数组": "class=\"vods\"$$class=\"pages",
"搜索图片前缀": "空",
"搜索图片": "original=\"$$\"",
"搜索标题": "class=\"vod-txt\">$$</div>",
"搜索副标题": "class=\"pic-text text-right\">$$</span>",
"搜索链接": "href=\"$$\"",
"搜索链接前缀": "空",
"搜索链接后缀": "空",
//0：不启用，1：启用
"启用线路名": "0",
"线路名二次截取": "空",
"线路名截取数组": "class=\"more$$</div>",
"线路名标题": "/>$$</h3>",

"播放页状态": "class=\"pic-text text-right\">$$</span>",
"播放页导演": "导演：$$</p>",
"播放页演员": "主演：$$</p>",
"播放页剧情": "<p class=\"col-pd\">$$</p>",

"播放页二次截取": "空",
"播放页截取数组": "class=\"title$$</h4>",
"播放剧集二次截取": "空",
"播放剧集截取数组": "<a$$/a>",
"播放剧集标题": ">$$<",
"播放剧集链接": "href=\"$$\"",
"播放剧集链接前缀": "空",
"播放剧集链接后缀": "空"},













 {"网站名字": "夜色撩人",
"网站地址": "https://ysx10.xyz/",
"访问请求ua": "Mozilla/5.0 (Windows NT 10.0; Win64; x64) AppleWebKit/537.36 (KHTML, like Gecko) Chrome/88.0.4324.150 Safari/537.36",
"访问请求cookie": "空",
"访问请求referer": "空",
"播放请求头": "User-Agent$123",
"图片请求头": "空",
"网页编码": "utf-8",
 
//0：不禁用，1：禁用
"禁用搜索": "0",
 
//0：不启用，1：启用
"搜索手动验证": "0",
 
//0：不启用，1：启用
"是否启用解析模式": "0",
 
//需要点击播放的网站可以自己找网页的点击js字符
"自动点击字符": "空",
 
//0：不启用，1：启用
"启用js加载源码":"0",
"js加载源码时间":"5",
 
"嗅探词": "m3u8?#.m3u8#.mp4#.flv#.mp3#.m4a",
"过滤词": "51.la#cnzz.com#baidu.com#bilibili.com#url=",
 
//0：记录，1：不记录
"是否记录历史": "0",
 
//0：否，1：是
"直接播放": "0",
"列表显示": "0",
"横图显示": "0",
"列表起始页": "1",
"列表分类": "国产$/index.php/vod/type/id/1/page/#欧美$/index.php/vod/type/id/6/page/#无码$/index.php/vod/type/id/2/page/#传媒$/index.php/vod/type/id/3/page/#制服$/index.php/vod/type/id/4/page/#主播$/index.php/vod/type/id/5/page/#调教$/index.php/vod/type/id/23/page/#女优$/index.php/vod/type/id/24/page/#强奸$/index.php/vod/type/id/25/page/",
"列表后缀": ".html",
"列表二次截取": "空",
"列表截取数组": "class=\"stui-vodlist__item\"$$</li>",
"列表图片前缀": "空",
"列表图片": "data-original=\"$$\"",
"列表标题": "title=\"$$\"",
"列表副标题": "class=\"pic-text text-right\">$$</span>",
"列表链接": "href=\"$$\"",
"列表链接前缀": "空",
"列表链接后缀": "空",
 
//0：get方式，1：post方式，注意：如果用post方式，【搜索模式】要填：1
"搜索请求方式": "0",
"搜索模式": "1",
"搜索前": "/index.php/vod/search/wd/",
"搜索后": ".html",
"搜索连接后缀": "",
"搜索二次截取": "空",
"搜索截取数组": "class=\"stui-vodlist__item\"$$</li>",
"搜索图片前缀": "空",
"搜索图片": "original=\"$$\"",
"搜索标题": "title=\"$$\"",
"搜索副标题": "class=\"pic-text text-right\">$$</span>",
"搜索链接": "href=\"$$\"",
"搜索链接前缀": "空",
"搜索链接后缀": "空",
 "播放页截取数组": "player_aaaa=$$}",
"播放剧集二次截取": "空",
"播放剧集截取数组": "\"play\"$$\"vod_director\"",
"播放剧集标题": "{\"vod_name\":\"$$\"",
"播放剧集链接": "\"link\":\"\/$$\"",
"播放剧集链接前缀": "空",
"播放剧集链接后缀": "空"},
 
 
{"网站名字": "杏冲动",
"网站地址": "https://tpn.xcd3.autos/",  //【https://byb.wuyushe1.com/x/】杏冲动永久网址，请您牢记
"访问请求ua": "Mozilla/5.0 (Windows NT 10.0; Win64; x64) AppleWebKit/537.36 (KHTML, like Gecko) Chrome/88.0.4324.150 Safari/537.36",
"访问请求cookie": "空",
"访问请求referer": "空",
"播放请求头": "User-Agent$123",
"图片请求头": "空",
"网页编码": "utf-8",
 
//0：不禁用，1：禁用
"禁用搜索": "0",
 
//0：不启用，1：启用
"搜索手动验证": "0",
 
//0：否，1：是
"集数倒序": "0",
 
//0：不启用，1：启用
"是否启用解析模式": "0",
 
//需要点击播放的网站可以自己找网页的点击js字符
"自动点击字符": "空",
 
//0：不启用，1：启用
"启用js加载源码":"0",
"js加载源码时间":"5",
 
"嗅探词": "m3u8?#.m3u8#.mp4#.flv#.mp3#.m4a",
"过滤词": "?url=#?v=#.css#51.la#cnzz.com#baidu.com#bilibili.com",
 
//0：记录，1：不记录
"是否记录历史": "0",
 
//0：否，1：是
"直接播放": "1",
"列表显示": "0",
"横图显示": "0",
"列表起始页": "1",
"列表分类": "绝美少女$/cn/home/web/index.php/vod/type/id/20/page/#激情口交$/cn/home/web/index.php/vod/type/id/21/page/#亚洲日韩$/cn/home/web/index.php/vod/type/id/22/page/#人妖激情$/cn/home/web/index.php/vod/type/id/23/page/#重咸口味$/cn/home/web/index.php/vod/type/id/24/page/#国产专区$/cn/home/web/index.php/vod/type/id/25/page/#日韩专区$/cn/home/web/index.php/vod/type/id/26/page/#欧美专区$/cn/home/web/index.php/vod/type/id/27/page/#卡通动漫$/cn/home/web/index.php/vod/type/id/28/page/#三级伦理$/cn/home/web/index.php/vod/type/id/29/page/",
"列表后缀": ".html",
"列表二次截取": "class=\"entry$$</ul>",
"列表截取数组": "class=\"ng-scope\"$$</li>",
"列表图片前缀": "空",
"列表图片": "data-original=\"$$\"",
"列表标题": "title=\"$$\"",
"列表副标题": "class=\"pink-txt ng-binding\">$$</span>",
"列表链接": "href=\"$$\"",
"列表链接前缀": "空",
"列表链接后缀": "空",
 
//0：get方式，1：post方式，注意：如果用post方式，【搜索模式】要填：1
"搜索请求方式": "0",
"搜索模式": "1",
"搜索前": "/cn/home/web/index.php/vod/search/page/1/wd/",
"搜索后": ".html",
"搜索连接后缀": "/vod/",
"搜索二次截取": "空",
"搜索截取数组": "class=\"ng-scope\"$$</li>",
"搜索图片前缀": "空",
"搜索图片": "original=\"$$\"",
"搜索标题": "title=\"$$\"",
"搜索副标题": "class=\"pic-text text-right\">$$</span>",
"搜索链接": "href=\"$$\"",
"搜索链接前缀": "空",
"搜索链接后缀": "空"},

{"网站名字": "魅色仓库",
"网站地址": "https://www.msck1.cfd/",//发布地址:https://xbd.abczi.com/258/
"访问请求ua": "Mozilla/5.0 (Windows NT 10.0; Win64; x64) AppleWebKit/537.36 (KHTML, like Gecko) Chrome/88.0.4324.150 Safari/537.36",
"访问请求cookie": "空",
"访问请求referer": "空",
"播放请求头": "User-Agent$123",
"图片请求头": "空",
"网页编码": "utf-8",

//0：不禁用，1：禁用
"禁用搜索": "0",

//0：不启用，1：启用
"启用js加载源码":"0",
"js加载源码时间":"5",

"嗅探词": "m3u8?#.m3u8#.mp4#.flv#.mp3#.m4a",
"过滤词": "51.la#cnzz.com#baidu.com#bilibili.com",

//0：记录，1：不记录
"是否记录历史": "0",

//0：否，1：是
"直接播放": "0",
"列表显示": "0",
"横图显示": "0",
"列表起始页": "1",
"列表分类": "女神学生$/vodtype/21-#美女直播$/vodtype/22-#人妻系列$/vodtype/23-#强奸乱伦$/vodtype/24-#自拍偷拍$/vodtype/25-#制服诱惑$/vodtype/26-#巨乳系列$/vodtype/27-#自慰系列$/vodtype/28-#国产视频$/vodtype/29-#无码视频$/vodtype/30-#有码视频$/vodtype/31-#中文字幕$/vodtype/32-#日韩精品$/vodtype/33-#欧美精品$/vodtype/34-#动漫精品$/vodtype/35-#三级伦理$/vodtype/36-",
"列表后缀": ".html",
"列表二次截取": "空",
"列表截取数组": "class=\"st--post--img\"$$</a>",
"列表图片前缀": "空",
"列表图片": "src=\"$$\"",
"列表标题": "alt=\"$$\"",
"列表副标题": "class=\"pic-text text-right\">$$</span>",
"列表链接": "href=\"$$\"",
"列表链接前缀": "空",
"列表链接后缀": "空",

//0：get方式，1：post方式，注意：如果用post方式，【搜索模式】要填：1
"搜索请求方式": "0",
"搜索模式": "1",
"搜索前": "/s/index.html?wd=",
"搜索后": "&limit=150",
"搜索连接后缀": "/vod/",
"搜索二次截取": "空",
"搜索截取数组": "class=\"st--post--img\"$$</a>",
"搜索图片前缀": "空",
"搜索图片": "src=\"$$\"",
"搜索标题": "alt=\"$$\"",
"搜索副标题": "class=\"pic-text text-right\">$$</span>",
"搜索链接": "href=\"$$\"",
"搜索链接前缀": "空",
"搜索链接后缀": "空",

//0：不启用，1：启用
"启用线路名": "0",
"线路名二次截取": "空",
"线路名截取数组": "class=\"more$$</div>",
"线路名标题": "/>$$</h3>",

"播放页状态": "class=\"pic-text text-right\">$$</span>",
"播放页导演": "导演：$$</p>",
"播放页演员": "主演：$$</p>",
"播放页剧情": "<p class=\"col-pd\">$$</p>",

"播放页二次截取": "空",
"播放页截取数组": "<h2>$$</h2>",
"播放剧集二次截取": "空",
"播放剧集截取数组": "<a$$/a>",
"播放剧集标题": ">$$<",
"播放剧集链接": "href=\"$$\"",
"播放剧集链接前缀": "空",
"播放剧集链接后缀": "空"},

{"网站名字": "AV成人影视",
"网站地址": "https://javcn.tv",
"访问请求ua": "Mozilla/5.0 (Linux; Android 6.0; Nexus 5 Build/MRA58N) AppleWebKit/537.36 (KHTML, like Gecko) Chrome/95.0.4638.69 Mobile Safari/537.36",
"访问请求cookie": "空",
"访问请求referer": "空",
"播放请求头": "User-Agent$123",
"图片请求头": "空",
"网页编码": "utf-8",
"集数倒序": "0",
"禁用搜索": "0",
"搜索手动验证": "0",
"是否启用解析模式": "0",
"自动点击字符": "空",
"启用js加载源码":"0",
"js加载源码时间":"5",
"嗅探词": "m3u8?#.m3u8#.mp4#.flv#.mp3#.m4a",
"过滤词": "51.la#cnzz.com#baidu.com#bilibili.com",
"是否记录历史": "0",
"直接播放": "0",
"列表显示": "0",
"横图显示": "0",
"列表起始页": "1",

"筛选列表模式": "1",
"筛选列表": [
{
"分类名称": "日本AV",
"第一页分类链接": "空",
"分类链接": "https://javcn.tv/vodshow/类型--------翻页---.html",
"类型": "全部$24#中文字幕$25#丝袜美腿$31#美乳巨乳$32#制服诱惑$34#强奸乱伦$35生活都市$36#SM调教$37#人妻熟女$38#学生校园$40#露出激情$41#萝莉少女$42#女同性爱$43#多人群交$44#角色扮演$45#名优系列$46#口爆颜射$47",
"排序": "空"
},
{
"分类名称": "无码专区",
"第一页分类链接": "空",
"分类链接": "https://javcn.tv/vodshow/类型--------翻页---.html",
"类型": "全部$22",
"排序": "空"
},
{
"分类名称": "国产专区",
"第一页分类链接": "空",
"分类链接": "https://javcn.tv/vodshow/类型--------翻页---.html",
"类型": "全部$33#麻豆传媒$21#网友自拍$29#网红流出$30#探花系列$39",
"排序": "空"
},
{
"分类名称": "AI换脸",
"第一页分类链接": "空",
"分类链接": "https://javcn.tv/vodshow/类型--------翻页---.html",
"类型": "全部$20",
"排序": "空"
},
{
"分类名称": "美女主播",
"第一页分类链接": "空",
"分类链接": "https://javcn.tv/vodshow/类型--------翻页---.html",
"类型": "全部$27",
"排序": "空"
},
{
"分类名称": "欧美专区",
"第一页分类链接": "空",
"分类链接": "https://javcn.tv/vodshow/类型--------翻页---.html",
"类型": "全部$28",
"排序": "空"
},
{
"分类名称": "卡通动漫",
"第一页分类链接": "空",
"分类链接": "https://javcn.tv/vodshow/类型--------翻页---.html",
"类型": "全部$26",
"排序": "空"
}
],
"列表二次截取": "module-items$$id=\"page",
"列表截取数组": "<a$$</a>",
"列表图片前缀": "空",
"列表图片": "original=\"$$\"",
"列表标题": "title=\"$$\"",
"列表副标题": "class=\"module-item-note\">$$</div>",
"列表链接": "href=\"$$\"",
"列表链接前缀": "空",
"列表链接后缀": "空",
//0：get方式，1：post方式，注意：如果用post方式，【搜索模式】要填：1
"搜索请求方式": "0",
"搜索模式": "0",
"搜索前": "/index.php/ajax/suggest?mid=1&wd=",
"搜索后": "&limit=150",
"搜索连接后缀": "/voddetail/",
"搜索带翻页模式": "http://www.xx.com/vod/search/page/翻页/wd/搜索词.html",
"搜索二次截取": "空",
"搜索截取数组": "前$$后",
"搜索图片前缀": "空",
"搜索图片": "original=\"$$\"",
"搜索标题": "title=\"$$\"",
"搜索副标题": "class=\"pic-text text-right\">$$</span>",
"搜索链接": "href=\"$$\"",
"搜索链接前缀": "空",
"搜索链接后缀": "空",
"启用线路名": "1",
"线路名二次截取": "空",
"线路名截取数组": "data-dropdown-value=$$</div>",
"线路名标题": "<span>$$</span>",
"线路名数组分割字符": "空",//json数据才用到，不用时填空或者不填或者删除这个字段
"播放页状态": "更新：$$</div>",
"播放页导演": "导演：$$</div>",
"播放页演员": "主演：$$</div>",
"播放页剧情": "备注：$$</div>",
"播放页二次截取": "空",
"播放页截取数组": "class=\"module-play-list-content$$</div>",
"播放剧集自动分割模式": "0",
"播放剧集数组分割字符": "空",//json数据播放链接都集合在一起时才用到，不用时填空或者不填或者删除这个字段
"播放剧集二次截取": "空",
"播放剧集截取数组": "<a$$/a>",
"播放剧集标题": "<span>$$</span>",
"播放剧集链接": "href=\"$$\"",
"播放剧集链接前缀": "空",
"播放剧集链接后缀": "空",
"启用嗅探截取": "1",
"嗅探请求头": "User-Agent$Mozilla/5.0 (iPhone; CPU iPhone OS 13_2_3 like Mac OS X) AppleWebKit/605.1.15 (KHTML, like Gecko) Version/13.0.3 Mobile/15E148 Safari/604.1",//User-Agent$123#Referer$123
"播放地址二次截取": "var player_$$</div>",
"播放地址截取": "\"url\":\"$$\"",
"嗅探播放地址前缀": "空",//加前缀的话，截取的地址就会加上前缀再进行一次嗅探。
"是否base64解码": "0",
"是否url解码": "0",
"官源是否走解析": "0",
"播放页跳转看图": "0"},



{
      "name": "木林森",
      "url": "https://www.madoupj.com",
      "tihuan": "cnzz.com",
      "User": "空",
      "fenlei": "MD系列$/index.php/&m=vodtype/mdapp4/page/#导演系列$/index.php/&m=vodtype/mdapp5/page/#MDS系列$/index.php/&m=vodtype/mdapp6/page/#MDX系列$/index.php/&m=vodtype/mdapp7/page/#MKY系列$/index.php/&m=vodtype/mdapp86/page/#MCY系列$/index.php/&m=vodtype/mdapp95/page/#MDXS系列$/index.php/&m=vodtype/mdapp8/page/#MDL系列$/index.php/&m=vodtype/mdapp46/page/#MMZ猫爪系列$/index.php/&m=vodtype/mdapp50/page/#MAD哎豆系列$/index.php/&m=vodtype/mdapp52/page/#MDWP职场银行系列$/index.php/&m=vodtype/mdapp57/page/#MLT乐天系列$/index.php/&m=vodtype/mdapp62/page/#MSD系列$/index.php/&m=vodtype/mdapp63/page/#MSM杏梦者$/index.php/&m=vodtype/mdapp64/page/#MDM恋爱咖啡馆$/index.php/&m=vodtype/mdapp73/page/#MDUS系列$/index.php/&m=vodtype/mdapp77/page/#MXJ系列$/index.php/&m=vodtype/mdapp78/page/#MSG系列$/index.php/&m=vodtype/mdapp85/page/#MAN系列$/index.php/&m=vodtype/mdapp88/page/#杏吧专区$/index.php/&m=vodtype/mdapp9/page/#辣椒原创$/index.php/&m=vodtype/mdapp79/page/#兔子先生$/index.php/&m=vodtype/mdapp10/page/#O-STAR$/index.php/&m=vodtype/mdapp80/page/#果冻传媒$/index.php/&m=vodtype/mdapp11/page/#91制片厂$/index.php/&m=vodtype/mdapp51/page/#皇家华人$/index.php/&m=vodtype/mdapp12/page/#天美传媒$/index.php/&m=vodtype/mdapp45/page/#吴梦梦专区$/index.php/&m=vodtype/mdapp13/page/#PsychoPorn涩控$/index.php/&m=vodtype/mdapp14/page/#叮叮映画$/index.php/&m=vodtype/mdapp70/page/#涩会$/index.php/&m=vodtype/mdapp71/page/#蜜桃影像传媒$/index.php/&m=vodtype/mdapp15/page/#豚豚创媒$/index.php/&m=vodtype/mdapp74/page/#宫美娱乐$/index.php/&m=vodtype/mdapp84/page/#柔柔传媒$/index.php/&m=vodtype/mdapp90/page/#爱妃传媒$/index.php/&m=vodtype/mdapp75/page/#渡边传媒$/index.php/&m=vodtype/mdapp94/page/#葵心娱乐$/index.php/&m=vodtype/mdapp96/page/#YOKUBOU$/index.php/&m=vodtype/mdapp97/page/#糖心$/index.php/&m=vodtype/mdapp72/page/#CCAV城人头条$/index.php/&m=vodtype/mdapp89/page/#精东影业$/index.php/&m=vodtype/mdapp34/page/#星空无限传媒$/index.php/&m=vodtype/mdapp47/page/#乐播传媒$/index.php/&m=vodtype/mdapp48/page/#开心鬼传媒$/index.php/&m=vodtype/mdapp56/page/#葫芦影业$/index.php/&m=vodtype/mdapp81/page/#深ye保健室$/index.php/&m=vodtype/mdapp35/page/#大象传媒$/index.php/&m=vodtype/mdapp58/page/#天马传媒$/index.php/&m=vodtype/mdapp82/page/#SWAG$/index.php/&m=vodtype/mdapp36/page/#HongKongDoll$/index.php/&m=vodtype/mdapp59/page/#国产短视频$/index.php/&m=vodtype/mdapp38/page/#北京天使$/index.php/&m=vodtype/mdapp39/page/#MINI传媒$/index.php/&m=vodtype/mdapp61/page/#麻豆不回家$/index.php/&m=vodtype/mdapp41/page/#狼人$/index.php/&m=vodtype/mdapp53/page/#女忧擂台摔角狂热$/index.php/&m=vodtype/mdapp54/page/#恋爱巴士$/index.php/&m=vodtype/mdapp60/page/#男女忧生死斗$/index.php/&m=vodtype/mdapp65/page/#情人劫密室逃脱$/index.php/&m=vodtype/mdapp66/page/#换7$/index.php/&m=vodtype/mdapp67/page/#你好同学$/index.php/&m=vodtype/mdapp68/page/#宝玉的胜利$/index.php/&m=vodtype/mdapp83/page/#杏爱自修室$/index.php/&m=vodtype/mdapp87/page/#春游记$/index.php/&m=vodtype/mdapp91/page/#心动的信号$/index.php/&m=vodtype/mdapp92/page/#情七大富翁$/index.php/&m=vodtype/mdapp93/page/#大鸟18$/index.php/&m=vodtype/mdapp17/page/#疯拍系列$/index.php/&m=vodtype/mdapp18/page/#创造银2021$/index.php/&m=vodtype/mdapp55/page/#禁玉小屋$/index.php/&m=vodtype/mdapp76/page/#KISS糖果屋$/index.php/&m=vodtype/mdapp19/page/#小鹏奇啪行$/index.php/&m=vodtype/mdapp20/page/#男忧出征趣$/index.php/&m=vodtype/mdapp21/page/",
      "houzhui": ".html",
      "shifouercijiequ": "0",
      "jiequqian": "空",
      "jiequhou": "空",
      "jiequshuzuqian": "class=\"col-sm-4\"",
      "jiequshuzuhou": "</a>",
      "tupianqian": "img src=\"",
      "tupianhou": "\"",
      "biaotiqian": "title=\"",
      "biaotihou": "\"",
      "lianjieqian": "href=\"",
      "lianjiehou": "\"",
      "sousuoqian": "/index.php/ajax/suggest?mid=1&wd=",
      "sousuohou": ".html",
      "sousuohouzhui": "/index.php/vod/detail/id/",
      "ssmoshi": "0",
      "sousuoshifouercijiequ": "0",
      "jspic": "空",
      "jsname": "空",
      "jsid": "空",
      "ssjiequqian": "空",
      "ssjiequhou": "空",
      "ssjiequshuzuqian": "class=\"col-sm-4\"",
      "ssjiequshuzuhou": "</a>",
      "sstupianqian": "src=\"",
      "sstupianhou": "\"",
      "ssbiaotiqian": "title=\"",
      "ssbiaotihou": "\"",
      "sslianjieqian": "href=\"",
      "sslianjiehou": "\"",
      "bfshifouercijiequ": "0",
      "bfjiequqian": "空",
      "bfjiequhou": "空",
      "bfjiequshuzuqian": "class=\"blog-single",
      "bfjiequshuzuhou": "</div>",
      "zhuangtaiqian": "class=\"yac\">",
      "zhuangtaihou": "</p>",
      "daoyanqian": "导演：</span>",
      "daoyanhou": "</p>",
      "zhuyanqian": "主演：</span>",
      "zhuyanhou": "</p>",
      "juqingqian": "class=\"title\">",
      "juqinghou": "title",
      "bfyshifouercijiequ": "0",
      "bfyjiequqian": "空",
      "bfyjiequhou": "空",
      "bfyjiequshuzuqian": "<a",
      "bfyjiequshuzuhou": "</a>",
      "bfbiaotiqian": ">",
      "bfbiaotihou": "</button>",
      "bflianjieqian": "href=\"",
      "bflianjiehou": "\""
    },

{"网站名字": "看呀影视",
"网站地址": "https://oikaya.com/",
"访问请求ua": "Mozilla/5.0 (Windows NT 10.0; Win64; x64) AppleWebKit/537.36 (KHTML, like Gecko) Chrome/88.0.4324.150 Safari/537.36",
"访问请求cookie": "空",
"访问请求referer": "空",
"播放请求头": "User-Agent$123",
"图片请求头": "Referer$https://oikaya.com/",
"网页编码": "utf-8",
"禁用搜索": "0",
"搜索手动验证": "0",
"集数倒序": "0",
"是否启用解析模式": "0",
"自动点击字符": "空",
"启用js加载源码":"0",
"js加载源码时间":"5",
"嗅探词": "m3u8?#.m3u8#.mp4#.flv#.mp3#.m4a",
"过滤词": "51.la#cnzz.com#baidu.com#bilibili.com",
"是否记录历史": "0",
"直接播放": "0",
"列表显示": "0",
"横图显示": "0",
"列表起始页": "1",
"列表分类": "新番新片$/vodtype/30-#中文字幕$/vodtype/31-#九一合集$/vodtype/20-#禁漫合集$/vodtype/32-#Ⅲ级电影$/vodtype/29-#欧美精品$/vodtype/33-",
"列表后缀": ".html",
"列表二次截取": "空",
"列表截取数组": "mo-cols-lg2\"$$</li>",
"列表图片前缀": "空",
"列表图片": "data-original=\"$$\"",
"列表标题": ".html\">$$</a>",
"列表副标题": "class=\"pic-text text-right\">$$</span>",
"列表链接": "href=\"$$\"",
"列表链接前缀": "空",
"列表链接后缀": "空",
//0：get方式，1：post方式，注意：如果用post方式，【搜索模式】要填：1
"搜索请求方式": "0",
"搜索模式": "0",
"搜索前": "/index.php/ajax/suggest?mid=1&wd=",
"搜索后": "&limit=150",
"搜索连接后缀": "/voddetail/",
"搜索二次截取": "空",
"搜索截取数组": "前$$后",
"搜索图片前缀": "空",
"搜索图片": "original=\"$$\"",
"搜索标题": "title=\"$$\"",
"搜索副标题": "class=\"pic-text text-right\">$$</span>",
"搜索链接": "href=\"$$\"",
"搜索链接前缀": "空",
"搜索链接后缀": "空",
"启用线路名": "0",
"线路名二次截取": "空",
"线路名截取数组": "class=\"more$$</div>",
"线路名标题": "/>$$</h3>",
"播放页状态": "mo-coss-block\">$$</li>",
"播放页导演": "导演:&nbsp;</span>$$</li>",
"播放页演员": "主演:&nbsp;</span>$$</li>",
"播放页剧情": "mo-ptxs-0px\">$$</div>",
"播放页二次截取": "空",
"播放页截取数组": "class=\"mo-deta-btns$$</div>",
"播放剧集二次截取": "空",
"播放剧集截取数组": "<a$$/a>",
"播放剧集标题": ">$$<",
"播放剧集链接": "href=\"$$\"",
"播放剧集链接前缀": "空",
"播放剧集链接后缀": "空"},


]}